X,Y,Test or train,Raw prediction,Cumulative prediction,Logistic prediction
72.903814,19.200296,train,1.0031529017877797E-4,39.90209203712914,0.3939929898354787
72.9039,19.397954,train,1.5855413374232937E-4,54.57177009335207,0.5068044568663883
72.92979,18.4483,train,3.682876473783276E-5,10.222629613025408,0.19269430576551996
72.935185,18.459175,train,1.0242558624530042E-4,40.570426524352406,0.39897446163943173
72.93537,18.452971,train,5.245921125333097E-5,23.4709458150159,0.25372548016606034
72.944137,19.241237,train,9.762857185778063E-5,38.96352780207003,0.3875300775204879
72.950111,18.426028,train,3.893802454300483E-5,12.28008035257734,0.20150648252668754
73.01853,19.192614,train,7.982572503333909E-5,33.928886667007646,0.3409573751640571
73.040263,19.139858,train,7.897465954698763E-5,33.48901083312074,0.3385529276886204
73.123148,18.889571,train,5.16287623605767E-5,22.516160649969304,0.2507159289600927
73.127352,17.74243,train,1.1640015209310391E-4,44.522245917852054,0.4300020659953636
73.251193,17.858274,train,6.876231339588974E-5,30.572391119254647,0.30826977466732236
73.270955,18.99331,train,9.976550679090962E-5,39.75956788868199,0.39268160726233825
73.2796,19.01869,train,3.9580016504121987E-5,12.912358444652403,0.20415056871629988
73.30202,19.77892,train,4.165745802913626E-5,14.726202479587128,0.2125879079586831
73.34312,19.74395,train,4.3020947268230684E-5,15.909946550699429,0.21802902590680023
73.35564,19.75898,train,2.3861380818489953E-5,1.3806618040853564,0.13393384904580596
73.361769,16.991648,train,9.880726801030777E-5,39.40822455232438,0.39038232951063023
73.368759,16.981935,train,1.5018410080199938E-4,53.31995371384435,0.49324673953227627
73.368888,18.749253,train,8.019466159538024E-5,34.13761533118292,0.34199427924341624
73.371398,18.755877,train,5.18373862869747E-5,22.73223631097756,0.2514742638971686
73.39912,18.67545,train,4.2934145642082324E-5,15.84174176124063,0.21768487895148225
73.39993,18.752863,train,5.398718691843266E-5,24.75740677210506,0.259200171485897
73.401139,18.74174,train,6.111399740981622E-5,27.208424730688886,0.2837093676700429
73.40137,18.436555,train,6.19831660225054E-5,27.59972286928289,0.28658794210796035
73.403649,18.750066,train,6.0673427280006224E-5,27.000242131753865,0.2822413663075781
73.407329,18.451899,train,4.937226885742245E-5,19.877811104026026,0.24241444011807436
73.41963,18.436133,train,5.134799569359776E-5,22.2180158445236,0.2496929309295739
73.426577,18.445952,train,3.945081821754875E-5,12.80145154200293,0.20361986540743784
73.444247,18.193233,train,4.541606910782648E-5,16.849778666953156,0.2274070788704232
73.47199,18.31982,train,7.781345194782152E-5,32.93420389862721,0.33524381874795406
73.47223,19.87915,train,8.002859764732615E-5,34.03596367748671,0.3415279570536318
73.474194,18.738538,train,4.338345789917255E-5,16.152637300835323,0.21946302400171538
73.478504,18.34549,train,1.1072130622802651E-4,42.73658202422998,0.4177880584334053
73.481028,18.713778,train,2.5230991234160985E-4,63.402584936196035,0.6205260366709968
73.485832,18.475702,train,8.13193073126627E-5,34.85046546195505,0.3451350832808275
73.490977,18.721713,train,5.136509831603431E-4,76.7104950732412,0.7689989678896263
73.494415,18.470144,train,5.051950926242269E-4,75.91053814321485,0.7660371117572837
73.502083,17.567444,train,4.5996654119139555E-5,17.132942581446056,0.22964657478780487
73.50522,18.3154,train,9.784605651463637E-5,39.021245915931445,0.3880583610951362
73.508663,18.551881,train,1.2008964300161179E-4,45.93863772539747,0.4376664531041601
73.513384,18.498554,train,6.336631351472032E-5,28.41313373753116,0.2911213474283318
73.51987,18.32589,train,8.18884162806442E-5,35.095832383327085,0.34671303916287594
73.535215,18.721433,train,4.1021903769502994E-5,14.110044521447234,0.21002571767727854
73.537931,19.069047,train,4.4510735732834327E-4,71.78547929886918,0.7425833115242824
73.53838,19.07792,train,4.5713540884994647E-4,72.4928547772712,0.7476471964225394
73.544809,19.093984,train,2.985872921186142E-4,65.50819619972818,0.6593021158709863
73.54505,19.05434,train,1.236558602032715E-4,47.341002044513665,0.4448813694384656
73.551194,19.189778,train,6.455123091698367E-5,29.011820201634674,0.2949594606155096
73.553676,19.094193,train,2.0111399665754818E-4,59.38881179632549,0.5658638556425026
73.554797,19.117937,train,2.6696094482298846E-4,63.9456997199786,0.6337238672028583
73.559606,19.044302,train,7.768980388578352E-5,32.87435156629696,0.33488950564654685
73.583272,19.082163,train,4.3678091294048E-4,71.3219257484212,0.7389571105890884
73.583889,18.220278,train,5.1837640863235863E-5,22.732499980321997,0.251475188328283
73.615421,18.381844,train,3.9076548826512025E-5,12.428894595219578,0.20207848932865877
73.616783,18.864173,train,5.886262045410014E-5,26.307024582204757,0.2761439411983646
73.625562,17.064391,train,6.918883513435733E-5,30.6512275644631,0.3095899412836329
73.656464,18.499406,train,5.182010853036528E-5,22.714341418744542,0.25141151863445726
73.663502,15.775195,train,8.628430246818863E-5,36.57098554675567,0.3586498778374048
73.665476,17.96668,train,5.597647889428908E-4,80.27213426476511,0.7839169248913491
73.67551,17.90398,train,6.669534465030137E-4,88.96409652048271,0.8121198522871304
73.678436,18.334026,train,1.1557289606164913E-4,44.227188376975896,0.42825479822841006
73.68217,18.244055,train,6.468390862044105E-4,86.8258651687159,0.8074026874359966
73.683319,18.10795,train,5.7020245864151446E-5,25.779168131118357,0.26983297171969556
73.69047,18.02554,train,2.799523311836999E-4,64.88445868754754,0.6446817180653552
73.708558,18.82833,train,9.92447615099074E-5,39.57425456229116,0.39143424385051323
73.715515,15.683865,train,1.1593244077847218E-4,44.35654323861533,0.4290155158210291
73.724715,17.422565,train,2.4327392591589247E-4,62.417912789856096,0.6119013485466354
73.734248,17.073759,train,3.514823229818995E-5,8.443929567554829,0.1855328352341333
73.739634,18.424082,train,3.353230171635469E-5,6.59839666795886,0.17852580617959365
73.74529,17.67228,train,5.190832647591762E-5,22.821720212798382,0.25173177745119657
73.75453,18.36615,train,6.585506921608381E-4,88.17406448233271,0.8101776538078489
73.755131,18.041203,train,7.98879326986394E-5,33.96006782333348,0.341132440130361
73.763022,18.371225,train,2.2650687484254873E-4,60.5589182822117,0.594813084493992
73.764052,20.120822,train,7.864194628571699E-5,33.3107761312448,0.3376081624734652
73.767528,17.92875,train,4.4624704053884933E-4,71.96754149060435,0.7430718247149297
73.769186,18.3759,train,1.2247270887758653E-4,46.87555038597485,0.44250831223558806
73.77085,18.37383,train,1.6371445660089837E-4,55.2717150274689,0.5148074755627011
73.779545,15.534737,train,1.728610328056109E-4,56.40149595138683,0.5283723454816884
73.783417,19.380232,train,1.759191338697058E-4,57.105210419593654,0.5327400511707904
73.786545,15.533763,train,1.0398153894567854E-4,41.0063312250689,0.4025952380713373
73.787593,17.922653,train,6.709263770170393E-4,89.31348515937943,0.8130243772638226
73.790344,17.16236,train,1.0425614120667819E-4,41.08511897425338,0.4032297264669402
73.801754,16.945074,train,6.260788501215089E-5,27.966356188566593,0.28864268113499003
73.803185,17.686638,train,5.349584922507732E-4,79.28654749272435,0.7761400928844017
73.812268,15.903391,train,6.226389577387316E-5,27.75227270742508,0.2875127461062223
73.82055,15.89105,train,6.877033214314126E-5,30.57387327003694,0.30829464079338076
73.826816,17.724871,train,4.4848418543351975E-4,72.26832092267482,0.7440253812863316
73.833017,15.458478,train,1.5973899802743978E-4,54.7595009844659,0.5086652963190686
73.83437,17.527793,train,6.465831581902527E-4,86.81086432708746,0.8073411413065749
73.835678,15.556072,train,1.6865869411302698E-4,55.75824444305259,0.5222354611265283
73.860102,16.40872,train,1.259162039255646E-4,48.373466756290235,0.449359248408167
73.860354,15.751284,train,7.419615069107367E-5,31.72890048665812,0.3247199678985395
73.863954,16.372319,train,7.648737735319287E-5,32.4057407633682,0.33142415852916507
73.875504,15.749828,train,4.2405122101131883E-5,15.38508801141351,0.21558086500208193
73.87722,16.363215,train,6.302497879950172E-5,28.220090676431422,0.2900079516869016
73.884272,16.579429,train,5.092497835441703E-5,21.690008574878934,0.24814634435485117
73.88975,16.47481,train,2.439823407535017E-4,62.57794483473935,0.6125916558463044
73.938975,15.575648,train,1.5598131111719922E-4,54.25206294497825,0.5027148819820543
73.942146,15.819629,train,3.591185802322158E-5,9.301671098871221,0.1888026591211055
73.973974,18.283162,train,7.063255605960996E-4,91.60101127092946,0.820715074629114
73.97588,15.9363,train,3.7284899073808815E-5,10.66707711820677,0.1946164114791498
73.992767,15.965117,train,1.2444822442722538E-4,47.73621500806868,0.4464593581332595
73.998971,15.491516,train,7.040926869797142E-5,30.881474816697548,0.31333973075432636
74.000924,15.489291,train,1.1574152866476728E-4,44.289932660288635,0.428611839994861
74.007823,15.455919,train,1.114563140775132E-4,42.9453813291831,0.4193983150440085
74.013176,15.430093,train,1.621155072328147E-4,55.06174198109261,0.512355615084368
74.026008,15.550284,train,1.6199309205366225E-4,55.04571059981128,0.5121668796279837
74.027494,15.209035,train,8.988853856131038E-5,37.22241743425944,0.3681163732385498
74.033754,15.218989,train,8.090801651286602E-5,34.62130799401013,0.3439899529365114
74.034129,15.425724,train,8.414786716749643E-5,36.051432754752604,0.35290345310984444
74.047766,15.02579,train,1.6109373714252677E-4,54.93053380012059,0.5107757934242175
74.073837,15.815956,train,3.2155796002799956E-5,5.500980937843169,0.17246118006278768
74.081883,15.645797,train,1.2668517325035896E-4,48.687684164690545,0.4508661998345302
74.08905,15.463173,train,1.5454270680802286E-4,54.04823931869423,0.5003984780955869
74.09305,15.764922,train,1.3082612253575732E-4,49.8080643968197,0.45884148638171574
74.095209,15.453199,train,1.2137545387496803E-4,46.441303759984976,0.4402893328750049
74.097987,15.443463,train,1.176689515241715E-4,44.98311210968987,0.43266127454460285
74.104446,14.984167,train,1.2957257988990094E-4,49.512499296717195,0.45645177526912806
74.105712,15.433701,train,4.4922160243022005E-5,16.674324664700908,0.22549164410299524
74.106174,15.44185,train,4.645881680951594E-5,17.385113913762297,0.23142001961319733
74.106941,15.472614,train,8.086917079760969E-5,34.59255874870387,0.3438815903033375
74.111366,15.440443,train,5.595366514818021E-5,25.4785294418189,0.26612889951668495
74.111892,15.483674,train,1.597619225045056E-4,54.76239521139883,0.5087011609469017
74.112396,15.615101,train,3.977598693550524E-5,13.079776676561668,0.204954200896263
74.116023,15.651842,train,5.2593174195858384E-5,23.621746636431677,0.25420869951738634
74.116822,15.652837,train,7.961879320276219E-5,33.82516353695831,0.34037435705121294
74.11864,15.648634,train,4.106072290114276E-5,14.143866257857928,0.2101826921846017
74.16132,14.962199,train,6.970166367802088E-5,30.74601658865004,0.31117058757064003
74.176941,15.659404,train,3.3386078673114825E-5,6.454012514365108,0.17788579787868022
74.196832,15.794979,train,9.322690285545108E-5,38.003564868349095,0.3766386263688171
74.197476,15.600319,train,6.255400899709025E-5,27.932765924719774,0.28846594609078463
74.200115,15.410996,train,1.3131030103683878E-4,49.92526961161676,0.4597588918770335
74.200128,15.594883,train,6.975968852963834E-5,30.756741652867643,0.31134897680082535
74.206188,14.976075,train,8.755273588119415E-5,36.80673272804303,0.36201358360929997
74.21239,15.01788,train,4.084248349213986E-5,13.959984601914508,0.20929937716079247
74.216123,15.185087,train,5.073357518686289E-5,21.459606584936783,0.24744446138400666
74.217496,15.438872,train,1.2604294162358565E-4,48.43876398883567,0.44960818563266824
74.220833,15.426667,train,8.235295271698671E-5,35.31211713497754,0.3479954232820104
74.223507,15.4547,train,5.7256793598222004E-5,25.858576941970835,0.27064940568539486
74.2297,15.568309,train,7.231447855541058E-5,31.31414094499393,0.3191127585509453
74.23367,15.439401,train,8.864943426416536E-5,37.00959875608896,0.36489355958459657
74.23635,15.37582,train,1.0184149741456631E-4,40.418696771606015,0.3976039027840309
74.24185,15.01988,train,3.030653787447624E-5,3.9907040428198752,0.16417132588926392
74.246979,15.429853,train,4.122750559842747E-5,14.296980125565753,0.2108564089987494
74.252987,15.119193,train,8.000027640895573E-5,34.018627580466195,0.341448362541191
74.264488,15.340081,train,1.3858316299670303E-4,51.2448873785228,0.47317429242856807
74.268436,14.884859,train,1.3520772691572397E-4,50.77353664181799,0.4670318396659816
74.27,15.0,train,5.6319058936977844E-5,25.58304789012174,0.2674020810765472
74.272728,15.310678,train,3.853721915296161E-5,11.919744310805047,0.1998468123095968
74.272926,15.050617,train,5.2115243249033714E-5,23.08689590612472,0.25248187619566764
74.273479,15.082114,train,3.6507350194560566E-5,9.88283308053576,0.1913343767695934
74.276792,15.049575,train,4.57469662149443E-5,16.993401574322675,0.22868504445971113
74.284058,15.119193,train,6.551970098088386E-5,29.596027997732858,0.29806573949248283
74.305837,14.89299,train,7.095355727122826E-5,30.98598983108631,0.3149989588035088
74.308761,14.899131,train,1.0845937284159851E-4,42.197073352539434,0.4127760895806755
74.314383,15.31462,train,3.5743355208650755E-5,9.10915036014592,0.18808339430843624
74.334941,14.900939,train,1.2427928496043595E-4,47.65653838515468,0.44612366910136636
74.335685,15.398494,train,4.6429723266142045E-5,17.369786518379165,0.23130862058307047
74.3418,14.895686,train,9.888671641319125E-5,39.43956609236663,0.3905736262977813
74.342723,15.386495,train,5.1109557036308635E-5,21.916182506931516,0.24882196272645532
74.358755,14.998189,train,4.1530463827983925E-5,14.60491566291248,0.21207726974454577
74.36388,15.417442,train,5.2457030407692704E-5,23.4685624271538,0.2537176084313695
74.367996,15.33148,train,6.462667125229569E-5,29.057377937359387,0.2952024156031859
74.372073,15.62453,train,6.156164941190688E-5,27.400741456836005,0.2851948284898758
74.37236,14.95057,train,4.295745920406528E-5,15.860060503148349,0.2177773412025009
74.375939,14.867607,train,1.348567865303954E-4,50.71111825653946,0.46638498551810864
74.406796,14.855248,train,1.1270937485741421E-4,43.27847290361833,0.4221230827856254
74.411342,14.859887,train,1.386739468827812E-4,51.25856356213019,0.4733375419071902
74.456265,14.869579,train,1.817073658168018E-4,58.14296958492962,0.5407893881915885
74.467778,15.022314,train,5.045163911106692E-5,21.144333447766797,0.24640820055090717
74.5,15.2,train,3.215260358378862E-5,5.498867548150255,0.17244701078258295
74.504643,14.923476,train,1.679321884003309E-4,55.70189581971526,0.5211582802358802
74.510173,15.3339,train,5.247105456147755E-5,23.483889049689807,0.2537682255372807
74.52,15.47,train,6.461652467824079E-5,29.051250513118855,0.2951697483901216
74.520586,15.292361,train,3.913718351740767E-5,12.494033395255409,0.20232860970279526
74.529867,15.286634,train,3.3220511418583586E-5,6.311879091459777,0.1771599163409284
74.533052,15.196247,train,3.3188871314392464E-5,6.284717221061564,0.17702105358420947
74.53316,15.28242,train,3.1558488339547536E-5,5.073151987889544,0.1698016061520098
74.535198,15.093671,train,4.080933142595254E-5,13.934951126870786,0.20916502264633854
74.535871,15.276897,train,3.159750558234719E-5,5.10471087074621,0.16997585619874744
74.540206,15.261384,train,3.06451953247405E-5,4.205306788665665,0.16570185956198155
74.599571,15.257921,train,7.217549595613E-5,31.27758702334757,0.318694908005161
74.62384,15.259213,train,3.0364510345038157E-5,4.026930720892412,0.16443372580422885
74.632639,15.165972,train,3.579008810818828E-5,9.164971729060005,0.188283004404486
74.67269,14.06653,train,4.545727305924243E-5,16.867662870743924,0.22756644441670576
74.678889,14.750556,train,7.588113001654E-5,32.22622947352145,0.32966324809495995
74.699113,13.355675,train,2.3676881094986873E-5,1.258108178448432,0.13303602434482859
74.752371,14.849773,train,3.286605892626739E-5,6.0068655320124,0.17560160466491564
74.760771,13.344758,train,1.588648668377841E-4,54.62100290561701,0.5072938280248317
74.776892,13.336561,train,1.1562278749226569E-4,44.2469415241138,0.4283604786277549
74.777411,13.324997,train,1.8256888959444404E-4,58.251009571514714,0.5419638061776825
74.778796,13.342053,train,1.650801785193317E-4,55.4601103268624,0.5168822604588781
74.782037,13.373462,train,1.381713001483868E-4,51.18284209518048,0.47243239919992713
74.78375,13.34998,train,1.2140555568713252E-4,46.453446620299445,0.4403504434123083
74.784365,13.35864,train,1.750138263927739E-4,56.94296716063611,0.5314555064889204
74.785363,13.367074,train,1.806879542791672E-4,58.01512635952215,0.5393919368039433
74.79269,13.349809,train,8.8459001944318E-5,36.97442807950172,0.3643953432547949
74.79275,13.35895,train,1.3667806007035157E-4,50.964983357532766,0.46972499797221184
74.792808,13.372064,train,1.1487994997240476E-4,43.95755621082832,0.4267829440203968
74.79431,13.33664,train,1.1202169576453204E-4,43.09920102464131,0.42063090625396976
74.796939,13.327155,train,1.0002190365288315E-4,39.82603541975634,0.3932938888813472
74.79979,14.18625,train,5.041978448673405E-5,21.09997328857699,0.246290938873914
74.800678,13.347147,train,1.1351595630744052E-4,43.50314469351735,0.42386349724196054
74.801445,13.845997,train,1.343793671360051E-4,50.604650942687435,0.465502479844837
74.80149,13.37092,train,1.336894958812487E-4,50.450223492136985,0.4642220898828684
74.802164,13.339432,train,1.1111225071681665E-4,42.8437814668602,0.4186456506739037
74.803087,13.365224,train,1.3232411944409962E-4,50.14961915335506,0.4616698019737894
74.804044,13.324373,train,7.672745689640037E-5,32.474659895325644,0.33211894071699016
74.81025,13.83462,train,9.790327407457373E-5,39.04458656176489,0.3881971946728365
74.812201,14.231117,train,4.513266560373143E-5,16.734987169562096,0.22630916795248437
74.812737,13.368128,train,1.0913371909881822E-4,42.37875031630024,0.4142793041097772
74.81378,14.2228,train,4.883962202542219E-5,19.338187087371292,0.24042796230912122
74.815079,13.375905,train,8.554267059791158E-5,36.40712441809533,0.35666669243935456
74.81676,13.365863,train,8.708068920900527E-5,36.71919074693053,0.36076591280977627
74.82242,12.941535,train,1.1758105360604819E-4,44.954252322421645,0.4324778541837034
74.83557,13.2931,train,1.7787724691655028E-4,57.54127112240001,0.5354944759343286
74.847107,14.055327,train,4.2526006073908194E-5,15.490745158521342,0.2160626374726784
74.873621,13.858752,train,5.796121848816729E-4,80.80626672176622,0.7897605482124959
74.87892,12.92633,train,1.1207704826250919E-4,43.113490826155996,0.4207512992799198
74.884594,13.368494,train,1.7282431566301466E-4,56.39250361565026,0.5283194084167843
74.888387,14.341164,train,4.221891138153518E-5,15.222261313316004,0.2148375787910899
74.891825,13.371458,train,1.7294752021688062E-4,56.42267744275929,0.5284969920542778
74.995873,13.206723,train,1.2054353488755489E-4,46.112100537262755,0.43859513354252383
75.00561,13.48405,train,1.3587262689089246E-4,50.86011084177003,0.46825309441575286
75.012642,13.47791,train,1.1985816366019087E-4,45.851748046009526,0.4371916533632315
75.014895,13.230546,train,1.1652709607118375E-4,44.573454979689636,0.430269242807637
75.025334,13.228938,train,9.114819860925632E-5,37.54970232666352,0.37135929646923704
75.035,14.548889,train,6.193123242962825E-5,27.57150191603888,0.28641659480654263
75.066469,13.489754,train,9.563257341354247E-5,38.556218212414535,0.3826387352418118
75.080298,13.500695,train,5.363951176144137E-5,24.55729578470545,0.257961532728399
75.085459,14.135015,train,5.977565906830605E-5,26.61418544374749,0.2792312567223128
75.090137,13.51793,train,4.806577257222685E-5,18.580368636168625,0.23752329940205127
75.091016,13.503024,train,6.578289154204828E-5,29.76499485425996,0.298905174785858
75.092239,13.496473,train,1.2187467851995449E-4,46.6459640325637,0.4413011013161232
75.130474,13.230149,train,8.017215010606385E-5,34.12383551838797,0.3419311037016929
75.14725,12.48011,train,1.1429391039765976E-4,43.74706339864117,0.42553223747102764
75.16,13.16,train,3.9837780248374514E-5,13.132274943116508,0.20520726539707096
75.1708,13.406,train,7.823711300174902E-5,33.1246857923851,0.3364549606958304
75.194764,13.198585,train,2.2341818338831999E-4,60.209088842719716,0.5914997446414425
75.195665,13.200507,train,1.4855962905093787E-4,53.00768050230375,0.49052859691472905
75.206823,12.710846,train,1.0587521768946418E-4,41.591063662740424,0.4069434907605953
75.220943,12.989755,train,9.248275773132273E-5,37.86170201507736,0.37475892550077716
75.24875,13.2151,train,1.1358456947083484E-4,43.524656180712846,0.42401106473132527
75.256316,13.444076,train,6.469760663908851E-5,29.100215175445236,0.2954307097468361
75.260897,12.023707,train,8.642316033156948E-5,36.596826581498554,0.35901983714863794
75.266874,13.441488,train,4.0473864897904174E-5,13.682351218131773,0.20780291316162697
75.292568,13.129468,train,5.190548252338854E-4,77.50048695068149,0.7708528187840018
75.303297,13.15329,train,6.209678203297597E-4,84.60467746033473,0.8009755429581392
75.31173,13.1539,train,6.936067134766269E-4,90.80561517918792,0.8180257377832115
75.31389,12.31172,train,1.0928913434023576E-4,42.42802818089788,0.41462465638033236
75.32503,12.40478,train,4.678055576820225E-5,17.560686630416075,0.2326498070140981
75.349023,11.882974,train,1.1262430511055729E-4,43.25477688098853,0.4219389089474366
75.363806,11.984599,train,1.7519337765600315E-4,56.99104969415606,0.5317108337148375
75.42367,13.86593,train,1.70935786124645E-4,56.05946069776384,0.5255804966872668
75.475388,12.415515,train,3.570513998197124E-4,67.25175237282542,0.6982552334256793
75.485601,13.144848,train,7.089184555326343E-4,91.9293712316452,0.8212536043795433
75.48985,12.36608,train,2.799738115485111E-4,64.88641054147959,0.6446992932133481
75.49324,12.413777,train,4.579313590326903E-4,72.51233025832784,0.7479752772708915
75.494117,12.383258,train,5.893737538905067E-4,81.38384560286396,0.7925201943030941
75.49525,12.38631,train,4.3504424542471244E-4,71.17631802121585,0.7381878702951536
75.5,13.5,train,1.4525456710245776E-4,52.183752822769435,0.4849074047071459
75.561647,12.372297,train,2.0428804785553356E-4,59.53161217846722,0.5697066594316365
75.565832,12.493545,train,8.27695671314805E-5,35.503677602887635,0.34914124065618996
75.574239,13.446767,train,6.224336125078956E-4,84.78651348341394,0.8013511283247441
75.611835,12.663089,train,9.761286145309092E-5,38.9599501484047,0.38749188065711715
75.61447,13.49044,train,9.826821609783654E-5,39.193456638084854,0.38908121557006187
75.61631,12.69387,train,6.374472991033556E-5,28.61684301372211,0.2923516248944114
75.616317,11.921517,train,1.6967672434648156E-4,55.890525619391354,0.5237367538113924
75.635784,12.398563,train,5.789736077418273E-4,80.77383531358977,0.7895774586625779
75.640698,13.694025,train,5.232850237004185E-5,23.32809757283244,0.25325339463726976
75.642892,13.437501,train,1.4491006953967813E-4,52.13012500946165,0.48431434253199857
75.646534,13.38628,train,5.741976883969932E-4,80.49217237787974,0.7881979542029502
75.648716,12.225516,train,5.057914373785085E-4,76.02682361023349,0.7662484813601136
75.65541,12.21772,train,5.507586100640877E-4,79.91366769403427,0.7811567397779716
75.655761,12.920755,train,4.475469249442916E-4,72.14703781056946,0.7436267479269676
75.657338,12.214688,train,4.5803568438064084E-4,72.52432783852032,0.7480182156698892
75.677878,12.210725,train,3.0553654844489103E-4,65.93857999833322,0.664450933569637
75.68284,12.909369,train,3.1299626444767926E-4,66.5295312565298,0.669807533386631
75.684321,12.174351,train,6.589635298244861E-4,88.3156712638549,0.8102740138941286
75.686874,12.662023,train,5.049423444757566E-4,75.86076051510899,0.7659474118244846
75.69217,11.82097,train,9.361668996767732E-5,38.08723540310938,0.37761872006937547
75.696745,13.35949,train,4.5920226317026523E-4,72.65848624636962,0.7484973634473192
75.708675,12.477141,train,4.8510452331469327E-4,74.83657891354996,0.7586857830978124
75.717017,12.441719,train,6.498117031601667E-4,87.00010071038585,0.8081146786593237
75.734081,11.834422,train,9.991895991956498E-5,39.799348604088756,0.3930482052648065
75.746613,13.517337,train,7.477374028988959E-4,93.75319381339416,0.8289459386931071
75.7488,12.42348,train,6.72419754124806E-4,89.55919411211833,0.8133621292891818
75.749723,11.770431,train,9.160423460865627E-5,37.671924111011656,0.37252514375316065
75.750003,12.121687,train,4.75226478356837E-5,18.088353183234094,0.23547136425716442
75.752556,13.549589,train,8.13011989985513E-4,98.80501707702652,0.8404887737516393
75.755668,13.432909,train,7.724327704730751E-4,95.19786100064834,0.8335041659011962
75.756741,11.784602,train,3.1565934303264624E-5,5.079174614806293,0.1698348652913997
75.75693,12.09276,train,5.8358914426585904E-5,26.171827072648387,0.274429380901252
75.764251,12.864105,train,3.0506056026944093E-4,65.89364162026547,0.664103235938553
75.779314,11.966784,train,1.2426929634648548E-4,47.651827472765234,0.4461038086037025
75.780419,11.965084,train,1.4631595942273047E-4,52.37975266672609,0.48672607579197297
75.79133,11.92203,train,1.2704464594273808E-4,48.798650486190326,0.451567833973526
75.79339,11.62544,train,1.1346782307485654E-4,43.489737269483584,0.4237599311501193
75.8,12.59,train,4.2139553588596025E-4,70.44253718753345,0.7319807369302453
75.802231,12.935426,train,3.5887598433687946E-4,67.32666629026696,0.6993280866380136
75.803465,11.9243,train,8.960132673908463E-5,37.17308822080916,0.36737227316116994
75.80384,12.196583,train,2.8115932013114E-4,64.99413401865648,0.6456665829931016
75.80608,11.84983,train,1.5705011486182404E-4,54.377856658147216,0.5044219828212688
75.812217,11.617463,train,1.2804059198170872E-4,49.06635449830792,0.4535024317043367
75.81317,11.96269,train,1.0827598001872975E-4,42.158862392125705,0.4123659452287504
75.815063,11.852819,train,6.027203935980916E-4,82.26954633192668,0.7961781812789893
75.815127,12.197047,train,4.3466033614513545E-4,71.09944507155409,0.7380172090733832
75.82261,11.62131,train,1.2134262262611273E-4,46.42805986401549,0.4402226660136551
75.822873,13.576414,train,1.0437965389995267E-4,41.12053071503649,0.4035146722616936
75.83539,11.86433,train,5.078441168213916E-5,21.51327494278349,0.24763100859456338
75.843431,12.543579,train,3.73832058333483E-4,68.23397767940963,0.7078428141067696
75.845,11.938,train,3.6067624481827325E-5,9.45936347098927,0.1894664254021481
75.845661,11.743681,train,1.0144491422786197E-4,40.27691552427702,0.3966697557114859
75.846434,11.779813,train,1.138426535095718E-4,43.60557601894087,0.4245654541478603
75.856669,11.835599,train,1.2214716686357512E-4,46.758443012907875,0.44185180626687365
75.85852,12.560439,train,3.9284201029376526E-4,69.30067300062981,0.7179936135817054
75.860836,11.949319,train,2.2232111549514813E-4,60.020710598769675,0.5903098044838107
75.865102,11.953128,train,1.1417691431082475E-4,43.710380369088725,0.4252818943913677
75.86791,12.30767,train,2.3822701189795908E-4,61.672070470704035,0.6069113286151078
75.86822,11.93133,train,3.946770688092712E-5,12.815949175020087,0.20368927859264382
75.869908,11.952258,train,1.2521427412050688E-4,48.00112127780671,0.44797643569787937
75.87,11.60872,train,3.475366269476288E-5,8.015853917892255,0.18383294852997578
75.87139,11.87344,train,1.166231489548798E-4,44.612202607858144,0.43047123726294256
75.876217,11.702333,train,5.252778402302238E-4,78.54523529083608,0.7729511707999331
75.877025,12.247792,train,3.819014947898225E-4,68.71905271900425,0.7122395920471715
75.887203,11.552353,train,1.0396376908330772E-4,40.99900755387371,0.40255413303672904
75.895357,11.720318,train,6.241718687921669E-4,85.01094089988266,0.8017946949870999
75.90539,11.88228,train,3.576979627171414E-5,9.140733599156304,0.1881963440005943
75.916667,11.55,train,6.642463488399118E-5,30.043068905139112,0.3009435966281078
75.918754,11.584849,train,1.28946790894194E-4,49.326448469752506,0.4552508768965132
75.91944,11.55417,train,1.2305832941096303E-4,47.09076255502623,0.44368542709399955
75.9222,11.4295,train,1.5652722859790281E-4,54.31644183524873,0.503588292046862
75.922892,11.713756,train,3.0678202735549414E-4,66.0423683337892,0.6653573284515223
75.92511,11.54942,train,1.2657492562631015E-4,48.64887811221811,0.45065065394779735
75.927157,11.937059,train,7.501204026400313E-4,93.87565865362046,0.8293966398560644
75.927801,11.840471,train,1.2363648979557177E-4,47.330531470148095,0.4448426807197018
75.93356,11.86936,train,1.8523589854319773E-4,58.49507813483856,0.5455616553421008
75.933981,12.189117,train,2.443300714480421E-4,62.64479037368531,0.6129296005713707
75.936685,11.705274,train,1.1454652423926627E-4,43.83720082329597,0.4260720263238941
75.9375,12.170911,train,1.483900542675709E-4,52.96682670631543,0.4902431746517894
75.940354,11.844283,train,1.2092567766997047E-4,46.25987257015466,0.43937463743551686
75.945954,11.957663,train,7.464352638678697E-4,93.52901403207025,0.8286986551399722
75.95,11.666667,train,7.764658260804786E-5,32.853430136262915,0.3347655661191017
75.95375,11.49872,train,3.8441349902731647E-5,11.842550695244904,0.19944881027631473
75.96114,11.64286,train,1.2267730289373306E-4,46.94914908213362,0.4429201180855055
75.961704,11.87743,train,6.242915205254792E-4,85.02638934909528,0.8018251547493537
75.964928,11.884255,train,6.108769514880192E-4,83.12433149126102,0.7983508707476442
75.965138,11.930509,train,5.417143247562875E-4,79.5293730891733,0.7783129899421465
75.968048,11.496258,train,1.527344628014449E-4,53.81044043129319,0.497456099817271
75.96858,11.60122,train,4.724617839638741E-4,73.63475938557411,0.7538180813747881
75.968978,11.566102,train,4.443136901853953E-4,71.7314648092104,0.7422420157272922
75.97567,11.91194,train,1.3328172887801162E-4,50.358381343797035,0.4634623922647369
75.9816,11.97017,train,3.1732088597416974E-4,66.77263174625176,0.6728353208751386
75.98689,11.92331,train,5.979489718051959E-4,81.92669656090344,0.7948853589136228
75.987797,11.907834,train,1.8853967544195423E-4,58.97401903253851,0.5499408973305764
76.0,12.0,train,1.8972467845755481E-4,59.03539076247615,0.5514911544377612
76.000865,11.419456,train,9.49224195566807E-5,38.39322862224564,0.3808795535900738
76.005182,11.503537,train,7.205654382409513E-5,31.246927835323817,0.318336871440319
76.006744,11.509715,train,4.760593149854582E-5,18.166098173555387,0.23578672807367307
76.007452,11.974984,train,1.4741083934792208E-4,52.71215623646786,0.4885887191617204
76.00933,11.90536,train,2.2403531933048567E-4,60.29111802611117,0.5921660912896024
76.01,11.9167,train,4.412946817095024E-4,71.52600785805541,0.7409354593769089
76.013842,11.516128,train,4.8847328262083424E-5,19.346111395270167,0.24045677657219935
76.020992,11.254105,train,1.725943815836287E-4,56.33619083385639,0.5279876297601315
76.02517,12.02424,train,2.479064687160755E-4,63.07935589838138,0.6163714380691259
76.026549,11.541068,train,8.115988948503677E-5,34.78464946309318,0.34469170134842014
76.039038,11.263549,train,1.0146133052138225E-4,40.28278446337947,0.39670848157742955
76.039124,11.548653,train,7.858523341147401E-5,33.28039500908988,0.337446852557641
76.04267,11.49167,train,1.220011794140296E-4,46.698185760518484,0.44155689749601684
76.043439,11.519489,train,2.670602642347566E-4,63.94878794383282,0.6338102033593641
76.05189,11.47125,train,4.751787762071569E-5,18.0839002052577,0.23545329337132564
76.052063,11.930887,train,1.51203719667555E-4,53.53993608947437,0.4949380478316341
76.05458,11.50739,train,6.739966011487685E-4,89.78574405631801,0.8137174375052951
76.061354,11.944784,train,1.5125041191883288E-4,53.548937588902376,0.495015229019988
76.070953,11.944752,train,2.0387057496622552E-4,59.50527480269727,0.569205117612577
76.072072,11.611702,train,1.0013793771215485E-4,39.856115731118024,0.3935705752946355
76.077705,11.881292,train,7.716876549669911E-5,32.64201289235213,0.333392313457195
76.08117,11.55617,train,5.061006978498328E-4,76.08347518220278,0.7663579459320496
76.083,11.8461,train,8.226173654506874E-5,35.27029642102518,0.34774401228290125
76.084335,11.921747,train,1.286234397944143E-4,49.23145697476359,0.4546282796302158
76.08622,11.43156,train,6.545596292074522E-5,29.554303804211894,0.29786214717702936
76.087103,11.852399,train,1.0157947291343625E-4,40.325021190173274,0.3969870316939949
76.0906,11.06716,train,5.503418888569268E-5,25.164176348724602,0.26290540267986795
76.09381,11.82242,train,1.1486303240636904E-4,43.95144954294409,0.4267469154443586
76.10183,11.4955,train,4.6032633056165525E-4,72.78774262958345,0.7489573298915267
76.104884,11.351284,train,3.967056607966095E-5,12.990088368365889,0.20452209467494833
76.10681,11.92672,train,1.4885737896728335E-4,53.06325802154532,0.49102898645426407
76.111157,11.338216,train,6.49922342066796E-5,29.277435584655613,0.2963773405235302
76.11278,11.95181,train,1.4652356222320676E-4,52.42282610614905,0.48708029776962497
76.11678,11.32881,train,5.159859906651244E-5,22.48488776278839,0.25060616011374787
76.116806,11.854528,train,8.282137039636663E-5,35.53462909816913,0.34928343406376294
76.15081,11.46492,train,6.345844187921813E-4,86.06668915945994,0.8044108343843354
76.155982,11.294073,train,2.2975745564484546E-5,0.8224163112842535,0.1296070668878073
76.15825,11.5085,train,1.8999993629785844E-4,59.04283203766099,0.551849727853353
76.15867,11.46764,train,5.168914529563298E-4,77.034735731132,0.7701142319225607
76.159458,11.43847,train,4.95430259020732E-4,75.52129760441488,0.7625208514584233
76.168152,11.275832,train,1.678868870460144E-4,55.698382194279915,0.521090951583311
76.20286,11.35472,train,4.532396456395096E-5,16.809801519710717,0.22705060594131346
76.206802,10.533204,train,1.1646404665511666E-4,44.54802091424565,0.430136575098131
76.21208,11.42289,train,2.2108320104696458E-5,0.30155775466951107,0.1253271347016124
76.217413,11.645905,train,1.8262678103135444E-4,58.25631110720464,0.5420425076773228
76.218797,11.275843,train,9.886699789377725E-5,39.43178734863664,0.39052615901951737
76.221256,11.416764,train,3.507346599768938E-5,8.36702579198082,0.18521127065966494
76.231041,11.479015,train,9.557883769100344E-5,38.546288998803185,0.38250597166489547
76.2375,11.0618,train,7.439494275352971E-5,31.773880053025206,0.3253069608547414
76.239195,11.279595,train,1.7052810980683003E-4,56.001166650557245,0.5249850690458326
76.240568,11.527755,train,2.2852730686807106E-4,60.83205007627648,0.5969515420413547
76.243615,11.315313,train,1.1166784094504682E-4,43.00784395401913,0.4198600792806586
76.24521,10.94481,train,1.5939596085999856E-4,54.70514988794103,0.5081279992988409
76.2466,11.6776,train,2.52887605688375E-4,63.44246111286189,0.6210644160925246
76.317558,11.290201,train,2.5421379452484353E-4,63.51825537771302,0.6222945932877189
76.31758,10.565489,train,1.3357370729893042E-4,50.424144206493644,0.46400658669142464
76.3273,10.595062,train,3.435209027291834E-5,7.563349704365276,0.18209559100206868
76.32833,10.626613,train,1.124801211412363E-4,43.217548125166054,0.421626486072091
76.335271,10.549453,train,1.666499091583446E-4,55.60244075865067,0.5192451612988145
76.33878,11.29061,train,1.5097450978143593E-4,53.4947963384606,0.4945588268763988
76.35,11.71667,train,2.4269207132881883E-4,62.26719559723026,0.6113325237642923
76.35115,10.526885,train,1.2412638035022382E-4,47.58442425338186,0.44581949071835747
76.355839,11.205345,train,4.9772909553216324E-5,20.276677093390926,0.24390177471814703
76.356067,10.581667,train,1.2087131081318499E-4,46.23884927384026,0.4392638707351835
76.36084,10.59545,train,5.911245093271587E-5,26.380779936978307,0.27699133415404953
76.362019,11.35046,train,1.5349014323586126E-4,53.90827287072436,0.4986899496547479
76.365087,11.444653,train,2.7709091328894807E-4,64.63817283889637,0.6423248715715462
76.3667,11.63,train,2.7466549426888987E-4,64.45911358227315,0.6403025201312401
76.367061,11.269636,train,1.3639652464287146E-4,50.92832565667172,0.469211428164946
76.368628,10.527982,train,1.6080723863362684E-4,54.894364010735416,0.5103309812720123
76.36994,11.66944,train,2.0278814888490885E-4,59.459543253838845,0.5678992549288999
76.377769,11.468585,train,2.708073019639072E-4,64.18200111677487,0.6370379485223919
76.37875,11.71997,train,2.224293107289731E-4,60.03928887298458,0.5904274670287226
76.380612,11.384308,train,7.136291413302782E-5,31.080095966063563,0.3162415827104256
76.383133,10.29785,train,1.3226080385281524E-4,50.136233464353055,0.4615508565294963
76.383476,10.579369,train,7.131420951170574E-5,31.0683815266135,0.3160939736553068
76.38382,11.44032,train,4.6099005883240164E-5,17.19118533671274,0.23004003172699852
76.388876,11.156357,train,3.5492839200395425E-5,8.824105883810375,0.18701169013836852
76.389234,11.234415,train,3.7763588958987975E-5,11.151763643076682,0.19662374589303414
76.389914,10.563675,train,5.558771223732506E-5,25.35036456939573,0.2648493265272096
76.391115,10.485618,train,3.69290473163576E-5,10.313548268118836,0.1931176731757703
76.396866,11.715444,train,1.6363182611326102E-4,55.26031773194973,0.5146813726580922
76.399355,11.443211,train,5.020446903064717E-5,20.839457798894816,0.24549737221668141
76.399796,11.503474,train,4.2400311717960255E-4,70.49811925274601,0.7331892487549063
76.399956,11.306361,train,9.349878263282331E-5,38.06192576754178,0.37732257522407514
76.40772,11.70528,train,3.01301789932919E-4,65.64803576409506,0.6613320258358077
76.410213,10.490344,train,5.129944060427065E-5,22.15549510310118,0.249515732813267
76.41437,11.301627,train,4.721738688302468E-5,17.836918711594336,0.2343132274362553
76.41558,11.177865,train,6.584609675507682E-4,88.14328818846681,0.8101566983136284
76.418152,11.180549,train,7.054446739247091E-4,91.50967992547038,0.820531380173068
76.419611,11.114064,train,3.91124575310166E-4,69.20915378290762,0.7171056252208288
76.420426,11.148719,train,5.06473663864902E-4,76.15179659086621,0.7664898231575605
76.421593,11.067118,train,3.359999263513507E-4,66.93482595176154,0.6852994568197317
76.424117,11.084922,train,4.892940004559412E-4,75.19037220307041,0.7602566270993397
76.427999,11.069439,train,8.0623971856857E-5,34.417948525472646,0.34319676498293017
76.429404,11.132482,train,6.150758109637826E-4,83.54898187878848,0.7994513734068434
76.431541,11.111453,train,2.9878114889109793E-4,65.51818288915221,0.6594478890764739
76.43316,10.483475,train,7.948345893910198E-5,33.757328185622434,0.33999250258309816
76.433717,10.482922,train,5.1238381608553025E-5,22.076874020621922,0.24929278380100864
76.44186,11.30697,train,5.297416066857171E-5,24.03361594970461,0.2555795461805452
76.442453,10.515729,train,6.554968848145001E-5,29.615658408104785,0.29816148482678995
76.442485,10.450253,train,4.2804654827103435E-5,15.738187866919315,0.21717091654514545
76.4426,10.4112,train,5.6015427228953297E-5,25.50015779738197,0.26634441458768443
76.44551,10.303435,train,1.1085758186947726E-4,42.76857927219689,0.4180872855192838
76.44675,11.09261,train,3.6575617613123927E-4,67.71582414488381,0.7033059147042962
76.448,10.448,train,1.301703674722882E-4,49.65265189941366,0.457594004225005
76.448708,11.195242,train,8.027863735962419E-4,98.26617982860995,0.838784532117142
76.449512,10.299726,train,1.547915547817679E-4,54.083496474590824,0.5008007090913896
76.45041,10.298682,train,1.4091327049134904E-4,51.516755675405115,0.47733255661434854
76.452012,10.457428,train,2.584388539510752E-5,2.0078414051340814,0.14346518975658354
76.453214,10.472348,train,3.1157648047615164E-5,4.736207590390902,0.1680072174327254
76.460483,10.44635,train,9.44926887048585E-5,38.28022155278395,0.37981015392067285
76.461453,10.41404,train,3.6354518749188724E-5,9.726577608628963,0.1906861269572703
76.4632,10.3798,train,1.184183201169375E-4,45.24777931966878,0.4342202133090718
76.463599,10.361263,train,2.3781089264350932E-4,61.62314519696191,0.6064941680706454
76.46398,10.42553,train,9.694489272436774E-5,38.80783689493726,0.3858634222946673
76.466667,10.433333,train,2.0910820138443363E-4,59.776129486020594,0.5754140141400257
76.466947,10.5014,train,4.2119949942295E-5,15.135555215441867,0.2144419868056758
76.469822,11.110695,train,7.361027814267067E-4,93.29472190469782,0.8267108188682095
76.470852,11.175707,train,5.209695123856113E-4,77.76044332530162,0.7715025554902353
76.47195,11.31429,train,5.372723705420048E-5,24.608107470159776,0.2582744562394268
76.472826,10.290071,train,9.488119952583177E-5,38.382388919046285,0.38077713609355057
76.4743,10.4109,train,3.492870847764703E-5,8.214740984627204,0.1845879565158989
76.475573,11.526956,train,4.786784797857372E-4,74.29317405737649,0.7562359303758266
76.48011,11.08347,train,5.277631965897765E-4,78.82180963685008,0.7737785136146403
76.484199,10.48241,train,3.389824857511493E-5,7.013178535289953,0.18012317158201868
76.491135,10.430955,train,1.857917691689575E-4,58.59613424950269,0.546304429774174
76.491473,11.447218,train,5.245546197749226E-4,78.41757873962173,0.7727092822111089
76.495829,10.433962,train,1.316511259099713E-4,50.007340103827694,0.46040281244808257
76.495872,10.429066,train,1.144249890081465E-4,43.793330724540944,0.42581245478905033
76.496934,10.37947,train,1.3334476644847676E-4,50.37257941733337,0.4635799762915459
76.499916,10.302485,train,7.515557513174756E-5,31.977973758197596,0.32754356386620054
76.49999,10.10975,train,1.8399697073212724E-4,58.38170067692049,0.5438973720295728
76.500441,10.10877,train,1.1591930485568127E-4,44.351960022825736,0.42898775872514316
76.503232,10.208518,train,1.103655804406428E-4,42.667881299851615,0.41700552191753404
76.508703,10.436874,train,7.46482376055855E-5,31.841844402607958,0.32605341267982313
76.513038,10.45,train,4.669731388582461E-5,17.511871056336968,0.23233200792714861
76.51325,11.12433,train,3.130109728659826E-4,66.53035806268396,0.6698179261332008
76.515511,11.483603,train,7.028058650182076E-4,91.43493204569496,0.8199788401614106
76.517072,10.391163,train,3.51860872687597E-5,8.482866764414453,0.1856955500182361
76.519443,10.391922,train,5.2363017312511234E-5,23.365818030208768,0.253378111403529
76.519651,11.543101,train,2.432823140722969E-4,62.42008556534445,0.6119095366880953
76.521,10.417,train,3.476659264947292E-5,8.030544935995772,0.1838887658693261
76.52311,11.13344,train,4.2539185011678297E-4,70.52772087815474,0.733828435017593
76.524507,11.48955,train,7.621446963536579E-4,94.66918821599099,0.831635064700146
76.527833,11.075981,train,3.349204275163931E-5,6.555344212709378,0.17834969486409516
76.527833,10.487567,train,7.327232755970351E-5,31.54897969361447,0.32197864733315446
76.528187,11.224603,train,7.546189120716702E-4,94.16598807237735,0.830241009695978
76.530697,10.291612,train,2.0977619476794665E-4,59.78813612860054,0.5761930359524304
76.531,10.406,train,1.268663434821995E-4,48.751424334548446,0.45122003987244264
76.532607,11.556289,train,1.8228612637576503E-4,58.215549454051164,0.5415790098475626
76.538248,11.062517,train,3.206441866524013E-5,5.4404889025936685,0.17205541760986456
76.542081,11.060347,train,4.843462770043643E-5,18.922464671711708,0.23891057199163368
76.543707,10.293229,train,4.140970525076431E-5,14.488249182379365,0.2115910900085982
76.553341,10.308607,train,5.9386386974807955E-5,26.461651774881002,0.2779182126009373
76.560534,10.200739,train,1.5560193125801363E-4,54.198311834860554,0.5021061021590567
76.561552,10.293356,train,5.38764283309618E-5,24.69452109146443,0.2588060284360177
76.563892,11.4076,train,7.662951638582644E-4,94.94610253572353,0.832394134288819
76.56769,10.29689,train,5.171392447242469E-5,22.60436462507477,0.2510256734337678
76.571413,10.190982,train,1.7205226541398144E-4,56.22340235740051,0.5272035438184783
76.572315,10.321738,train,3.5486484841973134E-5,8.817074592686879,0.18698446948386652
76.573528,10.503111,train,2.0067078773981054E-4,59.37008660979695,0.5653217973276952
76.576566,11.374974,train,7.556696722042506E-4,94.2805076214141,0.8304370345261542
76.578913,11.101494,train,4.019626566065827E-5,13.466243840987225,0.2066722118678334
76.579717,10.30373,train,3.88523879120597E-5,12.197491088384542,0.20115245373209933
76.582818,11.57985,train,1.5886673977975234E-4,54.62129965611335,0.5072967747622773
76.586134,10.304142,train,3.838342297469284E-5,11.795908116911585,0.19920813417322947
76.588837,10.358574,train,7.875426107618019E-5,33.37094323464794,0.33792739067942956
76.589674,10.17379,train,2.2689121865749622E-4,60.62276507603013,0.5952216261296054
76.592109,11.541337,train,7.423101611343793E-4,93.43738448227218,0.8279105329710039
76.592779,10.302692,train,3.9132929452578966E-5,12.489463326964081,0.2023110666407459
76.59947,11.12178,train,4.4889705907932324E-5,16.664972117794218,0.22536544990155122
76.600971,11.575484,train,2.813038633281692E-4,65.00726820934428,0.6457841597454448
76.602925,10.332131,train,6.42101434884529E-5,28.849386369839877,0.2938588973661096
76.60375,10.301556,train,3.030680202591841E-5,3.990863732943578,0.16417252188769427
76.604657,11.534956,train,5.057066364497143E-4,76.01128443338185,0.7662184476488666
76.612537,10.98067,train,2.440971516331393E-4,62.600015348636255,0.6127033009093406
76.61258,10.307657,train,4.443134629617171E-5,16.532884069856184,0.22357878002368278
76.619811,10.956866,train,6.732156169604675E-4,89.67517673200837,0.8135416289344942
76.620324,10.348837,train,4.300055314072139E-5,15.893921768276693,0.21794819545645483
76.620648,10.861988,train,5.717845522417593E-5,25.832278837059548,0.270379226556013
76.622558,10.530683,train,2.9025349891376022E-5,3.4175580215084125,0.15832994247959167
76.623194,10.537056,train,9.19216210824619E-5,37.7550219718325,0.3733339874326562
76.623781,10.986231,train,1.862088315480216E-4,58.68550587157412,0.5468601312403227
76.62411,10.3834,train,4.324296245350231E-5,16.066518668255327,0.21890788505849443
76.62492,10.25384,train,3.640521089883413E-5,9.776113121657573,0.19090125792563814
76.625862,10.976076,train,6.00299744604359E-4,82.02881813217869,0.7955243468150666
76.628802,10.519923,train,3.791154313206227E-5,11.286678627811495,0.19724215301461243
76.629467,11.665518,train,4.333922391345021E-4,70.9541891336667,0.7374519105926598
76.629733,10.309372,train,4.226206436403174E-5,15.260050158780446,0.21500995534118653
76.632187,10.347661,train,3.809976281805419E-5,11.47671560290761,0.198027484124669
76.634209,10.30351,train,4.306344079951724E-5,15.943336044460832,0.2181973918640373
76.6345,10.90381,train,2.799365442138668E-4,64.88302417470686,0.6446688001216418
76.636183,11.034017,train,5.154293875396475E-5,22.427117411955745,0.2504035192577647
76.63783,10.87275,train,3.249057960128421E-5,5.72015652807651,0.17394439995538494
76.638694,10.336958,train,3.1355603102467415E-5,4.905789523241529,0.16889434506145404
76.639986,11.525214,train,5.036717860267855E-4,75.73882122720188,0.7654954486134397
76.640024,11.570584,train,3.4743590624162113E-4,67.06877140514425,0.6924724209285662
76.642698,11.530925,train,3.985383902695626E-4,69.75357973624318,0.7208993913134151
76.643117,11.574395,train,2.463830467697876E-4,62.93895945176983,0.6149128458720489
76.644402,10.500556,train,7.08171445264299E-4,91.79248164565557,0.8210987865894891
76.644959,10.94549,train,6.57878117519455E-4,88.00314740003897,0.8100204589364438
76.645174,10.86635,train,6.378905373990891E-5,28.640029893147904,0.29249544769509495
76.648307,11.011297,train,2.1823213337273983E-4,59.94012480844617,0.5858129272080277
76.650796,11.106852,train,3.59874617261248E-5,9.378209574217141,0.1891249642585847
76.651444,10.446722,train,5.419738113171553E-4,79.53929787339645,0.7783956084204329
76.652384,10.523341,train,1.2557593119810748E-4,48.19445371679848,0.4486897720360481
76.652792,10.966598,train,2.8317819390784023E-4,65.09823710735283,0.6473017731662095
76.653843,11.540538,train,2.4138186473599457E-4,62.08217294329369,0.6100455325156238
76.654444,10.379512,train,3.812711505918407E-5,11.504923960060808,0.19814148123998257
76.655645,10.466712,train,4.4211011888625686E-4,71.58149667684245,0.7412896654239169
76.656869,12.42589,train,5.0925891600305296E-5,21.691156793444645,0.24814969012527063
76.659411,10.138721,train,1.6213584659148595E-4,55.06440560513118,0.512386959451628
76.659851,11.586408,train,2.450348158510417E-4,62.771255046841375,0.6136127066419681
76.665087,10.495745,train,4.068472598604993E-4,70.12895071728,0.7250320404035142
76.665258,10.540977,train,5.0641107685322145E-5,21.36600446189887,0.2471049097243574
76.66526,10.129773,train,1.3395178045198078E-4,50.509296614350816,0.464709607942539
76.667,10.375,train,4.1301015217512705E-5,14.37414885409421,0.2111529854779689
76.667533,12.277139,train,5.32900794308628E-4,79.18957565496768,0.7754697817183741
76.66758,10.96014,train,1.598596580232442E-4,54.77473409979933,0.5088540063842265
76.66852,10.150888,train,1.4534352539791848E-4,52.197600929045294,0.4850603273605394
76.670639,10.462944,train,6.217500371022762E-4,84.70171385418502,0.8011761498107755
76.672769,12.274676,train,5.766081329072681E-4,80.6211893352024,0.7888964543941965
76.673,10.522806,train,4.760697085356457E-4,73.93844366515418,0.755227112625232
76.673267,10.273661,train,3.863424715408607E-5,11.997870948902301,0.20024922216487617
76.679319,10.118474,train,1.1590797832428088E-4,44.34800811640988,0.4289638228292046
76.679624,10.532813,train,4.7174553523804977E-4,73.5320343907399,0.7535364270219392
76.680837,11.477249,train,6.739637624084145E-4,89.78420540532184,0.813710051802488
76.681931,11.388452,train,7.793211701396607E-4,96.0048999307743,0.8347326021145571
76.682682,10.450337,train,3.751694769711378E-4,68.30638789163406,0.708580796199798
76.682758,11.277342,train,6.010545281532944E-4,82.10387311051913,0.7957286688296232
76.683197,10.263911,train,3.3615459281134035E-5,6.687324372921697,0.17888933687943526
76.683333,10.366667,train,3.208940693968558E-5,5.457031205301807,0.17216641794469315
76.683444,10.45975,train,1.746569340402876E-4,56.847393962248034,0.5309471673415345
76.68397,10.119879,train,1.0443890990812395E-4,41.13751972519871,0.4036512802704803
76.684055,10.530514,train,4.8147206823276236E-4,74.5002677751753,0.7573070377597623
76.684742,10.225397,train,2.3520393989795495E-5,1.167447861255559,0.13227305620237184
76.685311,10.491842,train,5.922724671003616E-4,81.5520181562811,0.7933257788094022
76.685814,10.134421,train,1.4536080007200767E-4,52.200290071428576,0.48509001264696205
76.686119,10.133213,train,1.4837786437075956E-4,52.96388992793623,0.4902226447282717
76.68677,10.937063,train,7.891776710097493E-5,33.45853351425662,0.3383915682222885
76.687118,11.484367,train,7.866555580112221E-4,97.00405416694204,0.8360208028163107
76.688703,10.196218,train,5.694531797194259E-5,25.75401492116111,0.2695739801176587
76.689098,10.296827,train,4.8653501562443376E-5,19.14508864100614,0.23973137770360728
76.689172,11.403898,train,7.769840847084051E-4,95.61302667451828,0.8343178570818381
76.690064,10.522919,train,4.7175178669117484E-4,73.53288429659555,0.7535388881025309
76.693226,10.535226,train,4.7860841555365604E-4,74.2801841586296,0.7562089450579818
76.69404,10.134272,train,1.3503673486755954E-4,50.75124778691698,0.4667168627376486
76.695557,11.366953,train,7.750404758991031E-4,95.33020603225823,0.8339713506425875
76.696883,10.40205,train,3.613544141902867E-5,9.52552585664215,0.18975507384182547
76.698217,11.058703,train,2.395042747607455E-4,61.82955346006498,0.6081862815805441
76.69841,12.294256,train,1.1294090751423626E-4,43.342965902343494,0.42262375124157964
76.699402,10.103909,train,9.959373685972097E-5,39.700064058742974,0.3922707249502509
76.701275,10.101269,train,1.298387970529497E-4,49.574914491316505,0.4569610461321803
76.70195,10.54201,train,5.410042999037865E-4,79.50221621665328,0.7780866083968303
76.70197,10.449904,train,8.090506221990403E-5,34.61912155742349,0.3439817130029616
76.702815,10.305718,train,4.51230644485295E-5,16.732220351072783,0.2262719182324401
76.704217,10.1177,train,1.5599152917565714E-4,54.253510654897646,0.5027312580155882
76.704617,10.221479,train,4.1837437922538706E-5,14.887116846497715,0.21331046669271916
76.706822,11.138239,train,4.898217268348129E-5,19.484771646774934,0.2409606175661071
76.707083,10.451167,train,8.015394283129256E-5,34.112690416687755,0.341879998499187
76.707667,10.204767,train,8.340383748208032E-5,35.82262198756655,0.3508779663455674
76.71062,10.100555,train,1.6049705242558796E-4,54.855203702857956,0.5098484792050293
76.710924,11.418659,train,7.810329241958094E-4,96.39299579651876,0.835035059311505
76.711607,10.187215,train,5.571442541406053E-5,25.394742350385876,0.2652928903254896
76.713717,10.408467,train,3.168520516170181E-5,5.175646194537359,0.17036725350677392
76.71721,11.396748,train,7.829507314500649E-4,96.59821656770218,0.835372612652686
76.71765,10.415567,train,3.183432421411882E-5,5.288165777192569,0.1710319150393177
76.718614,10.406998,train,4.007339793419348E-5,13.345135269542212,0.20617072298052197
76.718642,10.312576,train,7.781546015728328E-5,32.935175980341334,0.33524957015007145
76.719246,10.467303,train,4.1084138827797004E-5,14.164267726557986,0.21027734996195865
76.720973,10.823822,train,8.817200272499369E-5,36.92132178223283,0.36364300642965713
76.721005,10.15055,train,1.0187346947602139E-4,40.43012700592949,0.39767908661377016
76.721455,11.407199,train,7.535915441938872E-4,94.05404423564883,0.8300489101081174
76.723527,10.944036,train,3.800401934955686E-5,11.380047716960632,0.19762819451041966
76.72544,10.31574,train,1.2574165134400015E-4,48.283534552314705,0.4490160246782777
76.726885,10.141678,train,1.1655890587857017E-4,44.586287021178585,0.4303361531229123
76.727867,10.141617,train,1.0070779378041677E-4,40.003843459271785,0.394925757908608
76.734127,10.323589,train,1.8104510929064558E-4,58.05991884615881,0.5398825065290725
76.734389,10.527,train,5.272519128370071E-4,78.75599855147337,0.7736088068769579
76.73586,11.401126,train,5.293032177291807E-4,79.020025064383,0.7742881478695175
76.736917,10.287636,train,5.123505716430103E-5,22.07259338346663,0.24928064122101584
76.737306,11.253336,train,5.311003914929897E-4,79.10472426850221,0.7748799850651951
76.737317,10.140183,train,1.9514780902886515E-4,59.18199878243281,0.5584516956284246
76.737549,11.218985,train,3.503469505709151E-5,8.327146438654935,0.18504441958776435
76.737861,10.554,train,8.686468412849434E-4,99.49461492343796,0.8491641151321202
76.741047,10.453461,train,3.237405682878384E-5,5.643871596130541,0.17342876293422116
76.742694,10.519972,train,4.2609757144282585E-4,70.5623911021977,0.734152082233552
76.745714,10.532201,train,4.3804613397107706E-4,71.37913049024357,0.7395146880663304
76.746025,11.314959,train,8.108421973705424E-4,98.50848994988557,0.8401301659633372
76.75029,10.530598,train,3.9194603533935693E-4,69.24843188071566,0.7175310523420063
76.75053,10.43279,train,4.979188703114855E-5,20.304301137816577,0.2439720816684363
76.75154,10.246006,train,9.979710414065807E-5,39.76775908809881,0.3927571292182422
76.752548,10.208412,train,3.104599281626069E-5,4.610766074607948,0.16750600312722713
76.753152,10.127505,train,8.668564917067815E-5,36.64567497255021,0.3597180220007255
76.753557,10.277171,train,2.7811421583313385E-4,64.72204536766469,0.6431713117536788
76.755158,11.21359,train,4.737851689774794E-5,17.961708564063468,0.23492497933636663
76.755514,10.302364,train,1.7224417825297656E-4,56.25158246752969,0.5274814133007688
76.756367,10.393283,train,4.9127561699935566E-5,19.651563742141008,0.24150310967554467
76.75731,10.51067,train,3.487137438234054E-4,67.09308723464845,0.6932536579786448
76.7593,10.11786,train,1.1655113938548063E-4,44.58315402636545,0.4303198181490945
76.76405,10.420233,train,5.993631079787227E-5,26.686679588146447,0.27977175611651733
76.764908,11.101599,train,5.3877412827739766E-5,24.695091325419078,0.2588095336918038
76.765498,10.376353,train,4.142521647504019E-5,14.50439834569524,0.2116535725114659
76.766694,10.531778,train,7.909818510114963E-5,33.55442227351123,0.33890300245452415
76.76993,10.38838,train,4.961413692615175E-5,20.09614241106442,0.2433130479163044
76.771689,10.167531,train,1.2222540697891975E-4,46.78658836429759,0.4420097307062859
76.77569,10.392879,train,3.3295227902676974E-5,6.376020456017111,0.1774876477072776
76.775861,10.28763,train,2.2943138142443706E-4,60.9150707512423,0.5979011362768386
76.777457,10.29212,train,2.5414334751046406E-4,63.51573913219992,0.6222294473097588
76.778986,10.316448,train,1.4668105179748502E-4,52.45550205089478,0.4873486881688958
76.77972,10.33278,train,2.48039814456113E-4,63.089570372940805,0.6164985835020923
76.77991,10.43679,train,5.085545533208897E-5,21.602597696815305,0.24789155214882386
76.779931,10.300533,train,1.0465673574765798E-4,41.19997154258642,0.40415291571950934
76.781,10.271,train,5.8882351044225945E-5,26.312849478681297,0.2762109370663076
76.78329,10.49169,train,1.7360198254425273E-4,56.58245492217381,0.5294380787057397
76.783333,10.383333,train,5.161260102269178E-5,22.499420522016628,0.2506571193759232
76.78408,10.44642,train,4.912689648795319E-5,19.65079128059658,0.24150062932647148
76.785851,10.236546,train,6.358982625078114E-5,28.535809120412882,0.29184853097879293
76.78636,10.30171,train,2.352664452430671E-4,61.339630145892855,0.6039239680311713
76.786618,11.092517,train,6.479717068548625E-5,29.160341001963772,0.29575089127072235
76.794723,11.355062,train,7.867804284852011E-4,97.02092908158686,0.8360425610358717
76.795464,10.212895,train,3.48422633446486E-5,8.116522000700305,0.18421527577510458
76.795936,9.965231,train,1.6880508163021448E-4,55.77725207476616,0.5224519216835006
76.799195,10.524518,train,3.3164931043735574E-5,6.264165375689858,0.17691595286730638
76.800749,11.332319,train,6.313681353059101E-4,85.70687436436174,0.8036101490603452
76.801472,10.159167,train,8.515240807158626E-5,36.3073708018694,0.3556181647813693
76.802373,11.091324,train,1.2426584734203422E-4,47.65020082487582,0.4460969505701937
76.80469,10.25555,train,6.068338979935165E-5,27.00441873656394,0.28227462840372686
76.805033,10.52105,train,5.105524710081034E-5,21.850255818721283,0.24862329669929625
76.807029,10.444521,train,4.965527373394826E-5,20.141282873228555,0.2434656706350373
76.809983,10.445267,train,5.129811324166893E-5,22.153785957980737,0.24951088752881007
76.81029,10.33591,train,6.221126345548222E-4,84.74669518218846,0.8012690042239597
76.810827,10.280127,train,1.2121348423091287E-4,46.37596633936064,0.43996028449964
76.81499,10.29142,train,2.7854731448141213E-4,64.75754325540437,0.6435283504601234
76.81524,10.33089,train,6.182014622782944E-4,84.09446633341538,0.8002628254076718
76.8175,10.33282,train,6.047671475658674E-4,82.41864874801007,0.7967277703365984
76.817756,10.304819,train,1.484801857135865E-4,52.98854108881112,0.4903949205110536
76.81807,10.291811,train,2.78964040815537E-4,64.79465581603829,0.6438712182818502
76.819733,10.29157,train,3.6418339365064286E-4,67.58589698931866,0.702405908364076
76.820023,11.33563,train,4.6559277659737286E-4,73.27264869798292,0.751090134190334
76.82044,10.445779,train,5.20005795689935E-5,22.946615960029025,0.2520663921383495
76.823766,10.45076,train,6.226865941685134E-5,27.754861292930354,0.2875284182195532
76.827178,10.844771,train,2.907839376049413E-5,3.4358385271765224,0.1585734077495183
76.828299,10.279426,train,4.579695779643891E-4,72.51672549598517,0.7479910091803087
76.830835,11.337784,train,3.118295510559158E-4,66.38394054088785,0.6689810618572157
76.832392,10.866982,train,4.329166425739442E-5,16.096371114612992,0.2191004096493494
76.8333,10.4708,train,9.328823189226906E-5,38.01672957581617,0.3767930387216905
76.834967,11.348188,train,5.155720689379732E-4,76.90507972511891,0.7696614452292304
76.83535,10.32865,train,4.7745812188812963E-4,74.06603737584342,0.7557650523455061
76.837864,10.296932,train,2.2477770696558368E-4,60.3651137439981,0.5929648024263404
76.84056,10.29072,train,3.063436019204069E-4,66.01477448398266,0.6650388241913939
76.841801,10.470004,train,7.949241423944245E-5,33.76181696716588,0.34001778420724427
76.842946,10.28689,train,1.491664312597077E-4,53.12092430603436,0.491547331870497
76.847807,10.28219,train,1.7405866171733378E-4,56.69349734407498,0.5300925401084785
76.851397,11.045976,train,5.2009913613575556E-5,22.95925274470356,0.25210023133396847
76.8538,10.304,train,4.7265725012460795E-4,73.66280615882629,0.7538948338125504
76.855926,10.468094,train,4.269988538087327E-5,15.6450811713391,0.2167545813012083
76.858699,10.283653,train,2.473547422206907E-4,63.037092859087544,0.6158444684497015
76.859249,11.36899,train,3.7807588359674434E-4,68.50278860303864,0.71017175510534
76.861004,10.279219,train,4.4653155063109265E-4,72.01562883354048,0.7431934878922671
76.863726,10.492939,train,2.359810251986893E-5,1.2039761283274086,0.1326520994997022
76.86471,10.30797,train,2.4299506433023366E-4,62.345679561390774,0.611628939579254
76.865158,11.045332,train,3.338635304239543E-5,6.454248050341729,0.17788699970819158
76.865323,10.27438,train,5.847237131797932E-4,81.02231009128438,0.7912146962565432
76.86533,10.509,train,2.320530377523006E-5,1.014404026928628,0.1307327216992687
76.86741,10.277317,train,6.037214844405556E-4,82.34247403387833,0.7964473624067462
76.867991,11.038487,train,3.104308425247724E-5,4.607498384905267,0.16749293867090195
76.869643,11.336127,train,2.7506851281480943E-5,2.70723303527955,0.15129996050700995
76.87107,10.284624,train,3.792847014274463E-4,68.5711246859851,0.7108283552625516
76.878676,10.298217,train,4.6404661080622024E-4,73.1086687822473,0.7504677356127126
76.880608,10.301028,train,6.131214713924433E-4,83.4043345794559,0.7989406477097457
76.88138,10.511626,train,2.276364020531047E-5,0.6933461084062865,0.12856439897374225
76.882496,10.139566,train,3.5121052398727784E-5,8.415972628741912,0.18541596577532243
76.88742,10.27937,train,6.081669803626609E-4,82.73853950815374,0.7976341632885456
76.887622,11.101233,train,1.0856551604018364E-4,42.21918890480521,0.413013209447557
76.88852,10.31111,train,3.103348378887626E-4,66.23529601866912,0.6679161782715687
76.888762,10.348219,train,5.249292219507538E-4,78.48370024032526,0.7728346361033761
76.892302,11.389015,train,5.267787487451954E-4,78.70548352306928,0.7734515259133317
76.8934,9.9959,train,5.092034282853153E-5,21.684180356047676,0.24812936116890127
76.89502,10.33645,train,5.481162669862262E-4,79.7742370272794,0.7803334931929645
76.895113,10.331217,train,4.4621238478680895E-4,71.9616840427369,0.7430569972273737
76.9,11.35,train,3.838778114334828E-5,11.799417300460293,0.19922624662444885
76.90152,10.27801,train,6.249375182669501E-4,85.1199130656009,0.8019894449202841
76.902752,10.088868,train,5.580586402069321E-4,80.21305577293464,0.7833993883346342
76.903533,9.5836,train,6.085321428196387E-5,27.084874972113084,0.282841151569063
76.903583,10.341089,train,4.338389993336664E-4,70.98154774299323,0.7376513476642245
76.911067,10.369261,train,1.2348022385002836E-4,47.250858900916946,0.44453037175924304
76.91131,10.34161,train,3.670833534392981E-4,67.8282334289362,0.7040611521724773
76.911507,10.293781,train,5.85885142265569E-4,81.13300589193501,0.7915423040839901
76.91172,10.31333,train,6.387628557407155E-4,86.41203665966573,0.8054413460512039
76.91476,10.34238,train,6.549010465566023E-4,87.52703418403533,0.8093215164780516
76.917043,10.285701,train,0.0010823952949380055,99.87032545790866,0.8752344224725473
76.91971,10.2722,train,4.92275172601874E-4,75.36187891023519,0.7613620206888972
76.920433,9.664046,train,4.777072413214701E-4,74.11241520680797,0.7558613233966437
76.921717,9.362467,train,4.176100838671451E-5,14.819622195932029,0.2130037898751335
76.921983,9.245158,train,1.1500466181191577E-4,44.00257295753511,0.42704839751115115
76.92266,9.24151,train,9.485744651172865E-5,38.376142547617995,0.38071810269202355
76.92435,10.35201,train,5.173984496917483E-4,77.29313147023387,0.7702877501556508
76.925396,9.198066,train,1.249695303954416E-4,47.9184894517397,0.44749265230765456
76.926633,9.644883,train,5.275062585483176E-4,78.7887362932924,0.773693261833992
76.930218,10.125033,train,7.542897239152281E-5,32.06603147919572,0.32834385686234596
76.93126,10.35648,train,5.947914853724325E-4,81.78952997640454,0.7940207787256838
76.933265,10.280311,train,3.9882202829047935E-4,69.77747318354834,0.7210425135005049
76.934381,10.35776,train,5.948910000320624E-4,81.79385306258708,0.7940481389659858
76.93455,10.32996,train,6.016139020010701E-4,82.15950733131373,0.7958798296402201
76.93475,10.33694,train,6.187835014227283E-4,84.18735729697465,0.8004132042076076
76.93485,10.34444,train,6.128963626005909E-4,83.38767351437029,0.7988816531261915
76.93637,10.28463,train,5.901507967771843E-4,81.42892219594205,0.792736758580389
76.938318,10.324071,train,6.266397794821008E-4,85.32896041605356,0.8024210622806266
76.939507,9.728947,train,4.618615383478719E-4,72.9032383089603,0.7495828230128624
76.942871,10.287698,train,6.260698677615E-4,85.28619426028177,0.8022767678234103
76.94465,10.29235,train,6.564983216495339E-4,87.78935321438672,0.8096971552414239
76.94499,10.27015,train,3.9908197654375376E-4,69.79789489418181,0.7211735531136138
76.945539,10.31143,train,6.229008624677563E-4,84.84683900091284,0.8014705557350655
76.94622,10.32445,train,5.799513793575005E-4,80.8206030832624,0.7898576707991949
76.9463,10.30654,train,6.172239485981748E-4,83.92194737981887,0.8000097591385167
76.949251,10.325855,train,6.12450269122987E-4,83.35465662327748,0.7987646424291092
76.94986,10.41493,train,6.601076860956941E-4,88.49064216872246,0.8105405598677554
76.950302,10.323364,train,5.939964103240443E-4,81.71458126707662,0.7938019220178976
76.953735,10.329072,train,6.243666112812901E-4,85.03608445083238,0.8018442658350793
76.953757,10.352467,train,6.178751220073387E-4,84.04238381885058,0.8001784111719614
76.955972,10.314545,train,6.323242473767996E-4,85.78996494166992,0.8038488545479696
76.95815,10.40482,train,7.227396349675635E-4,92.66960689724044,0.8240704618569529
76.958778,10.312528,train,6.274421000195418E-4,85.3891531504781,0.8026238431388295
76.958927,10.408764,train,8.184918623020882E-4,99.07786415491455,0.8413873259126202
76.9599,10.33015,train,6.253889364651919E-4,85.18620210239177,0.8021040880252838
76.961117,10.351623,train,6.663242536662635E-4,88.91569070626981,0.811975799347067
76.961769,10.334174,train,6.507675805459546E-4,87.25162164352479,0.808342509991737
76.96181,10.3052,train,6.331058623608273E-4,85.88403190082923,0.804043563971082
76.96308,10.348948,train,6.685358773090908E-4,89.09365803706564,0.8124811741244029
76.96546,9.18522,train,5.5214598089876694E-5,25.222450790692683,0.26354011178619763
76.966105,9.788474,train,1.2664121744436233E-4,48.67221216401307,0.45078028181495966
76.9671,10.34056,train,6.686075765338992E-4,89.10025052578779,0.8124975125453723
76.96765,10.46134,train,2.859669646301913E-5,3.2698312143012433,0.15635729060471806
76.96783,10.29859,train,6.108813958345927E-4,83.12523293016889,0.7983520419766268
76.968155,10.321664,train,6.376056364886559E-4,86.36198321493852,0.8051570344068926
76.968713,10.342303,train,5.351859232630734E-4,79.29466048330461,0.7762139347663715
76.969194,10.457787,train,2.9736163770232274E-5,3.683756617046765,0.1615808355592867
76.96923,10.3962,train,7.922509448561277E-4,97.30768947209717,0.8369901435235607
76.97,10.37,train,6.572430106216505E-4,87.90473997255044,0.8098717818798405
76.970494,10.287675,train,6.344770694875186E-4,86.05049280309431,0.8043842153903266
76.970521,10.355052,train,4.943855278219406E-4,75.47727509021176,0.7621383807932083
76.97191,9.57859,train,6.084895970578679E-4,82.7780524437301,0.7977197529332157
76.972054,10.043271,train,5.747364342272118E-4,80.50040712602842,0.7883544731362404
76.972245,9.554254,train,1.205996618218462E-4,46.13380444366075,0.43870975837102455
76.973058,10.35946,train,6.539277035636733E-4,87.46474870081059,0.8090918827357078
76.9738,9.37505,train,3.5950540214594534E-5,9.340831561084492,0.18896759665865917
76.975279,10.014158,train,7.87621362471535E-5,33.37516196865719,0.3379497624455722
76.980686,9.766919,train,8.926770156658916E-4,99.58284940211657,0.8526261056227169
76.98077,10.36277,train,6.629257196593543E-4,88.67868365859694,0.8111938742284295
76.981547,9.758008,train,1.1609768179495156E-4,44.414196990686804,0.4293644509557025
76.982639,10.357054,train,6.581957121107011E-4,88.05235748863484,0.8100947199178887
76.983186,10.040474,train,3.5370134441079783E-4,67.18799573260381,0.6962653400660946
76.983197,10.283791,train,6.938223451682756E-4,90.82034379982295,0.8180720041935525
76.983905,10.329797,train,6.429915953527258E-4,86.60784076747805,0.8064732663994075
76.984034,10.448805,train,1.8853636409044242E-4,58.97365379198266,0.5499365503040273
76.984828,10.289722,train,6.441281477701727E-4,86.67208760177294,0.8067487504500926
76.985479,10.346116,train,6.550146345900498E-4,87.54568885544876,0.8093482784871475
76.986241,10.070089,train,8.254007223908646E-4,99.33582290842985,0.8425058681154147
76.9868,9.95595,train,3.464470834722628E-5,7.889495909812761,0.18336229994118644
76.98705,10.32149,train,6.71685451895887E-4,89.4420214914334,0.8131962072715959
76.987145,10.432759,train,4.3241874332386097E-4,70.89457439713881,0.7370162828581177
76.98736,10.43362,train,1.834928939197388E-4,58.335571316457866,0.543216738736676
76.98755,9.94499,train,4.900827137790429E-5,19.51304070161634,0.24105805713632983
76.98782,10.31515,train,7.093322604154752E-4,92.00517844259322,0.8213392501201995
76.989026,9.810919,train,1.4504624374353926E-4,52.15132319943744,0.4845489333735033
76.98905,9.368333,train,5.802372635631383E-5,26.087301008875695,0.2732839293659267
76.9897,10.36529,train,6.976813390228299E-4,91.24844502588508,0.8188960384858491
76.9909,10.06305,train,7.563855569600595E-4,94.32054708861412,0.8305703275137017
76.99096,10.39981,train,4.965063495170985E-4,75.54969951379944,0.762913518800617
76.991412,10.367492,train,6.866040577251447E-4,90.4246169938591,0.8165103350546479
76.9915,10.38551,train,7.820299389369321E-4,96.52056660981037,0.8352107164942413
76.99183,10.36929,train,7.290690123257897E-4,93.01210686424707,0.825331009529174
76.992724,10.394539,train,5.867707233711379E-4,81.2174222264193,0.7917914126293439
76.992863,10.435439,train,9.743076067714772E-5,38.91848122883325,0.38704878931261416
76.992949,10.423199,train,5.237917296229021E-4,78.28292267519001,0.7724535664747443
76.99358,10.33975,train,6.561826506957995E-4,87.73751325804683,0.809623034796918
76.99421,9.26155,train,4.832927069699983E-5,18.82012612853198,0.23851483717786273
76.994419,10.404754,train,4.536049301035354E-4,72.40661450065731,0.7461816198422584
76.99453,10.38497,train,6.334123164913937E-4,85.92091349697729,0.8041197998240068
76.995921,10.363191,train,7.258326480980366E-4,92.79378832948261,0.8246887260356303
76.996017,9.5629,train,3.5982769943448094E-4,67.36574187464178,0.6998846719100216
76.996383,10.349012,train,7.11486728929849E-4,92.21376719176224,0.8217838405372612
76.99722,10.37991,train,7.824143655391819E-4,96.55298665873886,0.8352783460922042
76.99833,10.35204,train,6.675200573916692E-4,89.00768770557778,0.8122493884065087
77.001522,9.248599,train,4.1769628269347394E-5,14.82723438354968,0.21303838948912002
77.004837,9.96702,train,5.081721022202519E-5,21.554512349827082,0.24775131549785212
77.008863,10.198162,train,6.962131925306696E-4,91.01996970893227,0.8185834175662201
77.01024,10.32871,train,8.017734686898691E-4,98.06706361638949,0.8386137329801895
77.010764,10.083877,train,6.267821643956787E-4,85.33964260214888,0.8024570794688275
77.011231,10.200866,train,7.1349283593314E-4,92.3309356759936,0.8221958306824697
77.013233,9.730243,train,1.223589624330063E-4,46.83463232702338,0.4422791004950385
77.013989,10.341265,train,7.471735880243721E-4,93.65615351646588,0.8288389547595035
77.014466,10.433392,train,1.7903441656981985E-4,57.70976563681488,0.5371070223495302
77.014966,10.036868,train,6.161386815894969E-4,83.72788782886985,0.799728044603146
77.016233,10.131433,train,7.620525244581799E-4,94.66301420856433,0.8316181295438606
77.016488,10.285012,train,6.194717450666718E-4,84.30120533585408,0.80059073065833
77.020941,10.03963,train,3.674145435425419E-4,67.85673411832558,0.7042490186257722
77.02107,10.330963,train,8.119447794931576E-4,98.75184215267433,0.8403125941113938
77.02238,10.3111,train,5.444277342985072E-4,79.63315497338921,0.7791738840603301
77.025883,9.282117,train,8.28950187518819E-5,35.578632632178646,0.34948548256026657
77.02681,8.752738,train,7.760342728958847E-5,32.83254063407682,0.33464176963998316
77.027968,9.577413,train,6.204293943670553E-4,84.53788406544483,0.8008372231662875
77.030361,8.839319,train,4.294633232728215E-5,15.85131750693961,0.21773321441872764
77.03067,10.03892,train,3.632640871764276E-4,67.50995331830184,0.7018773129840652
77.030726,9.448723,train,6.498659026543263E-5,29.27413205733105,0.296359230583638
77.034159,10.040833,train,6.060420348941441E-4,82.51152322687865,0.7970686042575247
77.034962,10.120899,train,7.801510738807389E-4,96.2721417106594,0.8348793797664508
77.035103,10.146663,train,7.699114224588951E-4,95.1143652689544,0.833049945702244
77.037141,8.853312,train,6.930061417015537E-5,30.67188832108199,0.30993508591987184
77.038357,10.049565,train,7.302673547705117E-4,93.06025595666536,0.8255676382881723
77.041,10.23,train,7.61276754111223E-4,94.61105030070878,0.8314754586535558
77.041111,9.150231,train,3.448779978553431E-5,7.71010515361693,0.1826835496643513
77.042055,10.042438,train,4.716940106221976E-4,73.52986223529591,0.7535161408687571
77.043565,9.996514,train,3.6893417595342074E-4,67.98750665924476,0.7051079757410741
77.043878,10.023724,train,1.771565465172911E-4,57.32932740697809,0.534484470915563
77.044895,10.064598,train,5.23083190187579E-4,78.1647621181217,0.772215552837929
77.05,10.12,train,5.240717963966889E-4,78.33235497851379,0.7725475098220035
77.05038,10.02557,train,2.4626440333819693E-4,62.92420157474971,0.6147987856818432
77.05066,10.073044,train,5.109297537242532E-4,76.46888139108215,0.7680540161028484
77.050767,21.432058,train,5.279291082544975E-5,23.843160077560388,0.25492801097752116
77.05427,10.12536,train,6.117609548533171E-4,83.30363232097864,0.79858356672911
77.055445,10.164749,train,7.79415193881527E-4,96.05223434476169,0.8347492443586291
77.056046,10.083629,train,5.04423500462984E-4,75.75866168241645,0.7657630591859464
77.057118,10.106698,train,6.083171061599194E-4,82.7545811414669,0.7976740004083188
77.057768,10.137412,train,6.054877372692565E-4,82.47114243678347,0.7969205564644931
77.058749,10.086533,train,7.652871819374207E-4,94.87913672908525,0.8322104167306187
77.059406,10.136831,train,8.129233467254007E-4,98.80060346059554,0.8404741549511004
77.06171,9.086841,train,4.562805761397533E-5,16.941790367651336,0.22822629167435735
77.062397,9.130911,train,8.236197733893716E-5,35.316254736075926,0.34802028650688016
77.063365,10.070523,train,6.355647031780936E-4,86.21458984036138,0.8046535770156042
77.063448,10.07869,train,5.053689845161295E-4,75.94478538094197,0.7660987858111403
77.06397,10.169696,train,6.735267618114639E-4,89.72052046885197,0.8136117109912232
77.065047,10.059678,train,7.789505869297336E-4,95.81834539412694,0.8346669760668445
77.065144,10.40678,train,4.8596752198412776E-4,74.94761097575237,0.759011045515217
77.066167,9.317317,train,4.122063556621656E-5,14.28976812178635,0.21082868027931037
77.066892,10.064217,train,7.930527645177119E-4,97.4992275662425,0.8371281121719181
77.067567,10.151117,train,7.065829876087265E-4,91.62770878361925,0.8207686858248361
77.0694,9.41814,train,3.622510272668094E-5,9.6078098746907,0.19013638278420333
77.071209,10.185187,train,7.96533436351685E-4,97.65696192148974,0.8377243318804725
77.071482,10.055363,train,8.113765829635253E-4,98.62643482539517,0.8402186349606571
77.071983,8.981683,train,4.1039107250282045E-5,14.125033305783138,0.21009529179295164
77.074585,10.078389,train,7.642903442050444E-4,94.81291129244232,0.8320283338115966
77.075728,10.06726,train,7.848170032177009E-4,96.755593067838,0.8356997716376816
77.07731,10.051148,train,8.01561589448401E-4,98.02540098594275,0.838577959472052
77.077767,8.968417,train,3.657514411403663E-5,9.953667368624588,0.19162159905833953
77.0799,10.040383,train,7.315841542193758E-4,93.11316462116186,0.8258269197355259
77.08054,9.43384,train,3.546459318916151E-5,8.792850812115567,0.18689067656588423
77.084026,9.453803,train,9.546908788067874E-5,38.526009578353836,0.382234637921145
77.085485,10.089426,train,7.264332528174768E-4,92.83429613465141,0.8248082777700407
77.085833,9.511067,train,2.281452483265322E-4,60.79696584813217,0.5965488975175298
77.086,8.911613,train,6.852324228361675E-5,30.528202242243715,0.3075275933117317
77.0864,10.1299,train,7.747482111161016E-4,95.27457120056096,0.8339191203003271
77.086714,9.569358,train,8.392989369579458E-5,35.99447242678924,0.35231136994893636
77.089135,10.285506,train,7.98217714009491E-4,97.71401935070566,0.8380112748536641
77.091993,8.914486,train,5.068079799811096E-5,21.4061817942499,0.24725069479873138
77.095683,8.918633,train,7.429162204060526E-5,31.747494176659362,0.325002003002232
77.09838,10.0684,train,8.054750413679028E-4,98.34703937419157,0.8392361550086753
77.098489,8.901777,train,8.053876031564498E-5,34.359507102144846,0.34295843962294487
77.100884,8.921614,train,8.604819518391408E-5,36.52704668447279,0.3580198352730245
77.101811,10.217983,train,5.170828103143652E-4,77.13232815432873,0.7701797542399916
77.10248,9.515434,train,7.906696806434428E-4,97.2341402474538,0.8367173701301147
77.102909,9.102775,train,8.308251362255348E-5,35.690657359146186,0.3499992941845515
77.106235,8.705081,train,8.160181459884325E-5,34.96709921303937,0.3459193366638818
77.107123,10.067637,train,9.814050825982872E-4,99.77041404071595,0.8641398695341808
77.108445,11.968925,train,7.733180319094838E-5,32.70905701347557,0.3338615227174327
77.1099,8.76655,train,3.0384942382800467E-4,65.7792973778997,0.6632152726862837
77.112467,9.032017,train,6.3306943667334E-5,28.379960495823266,0.2909279405496509
77.113203,9.584459,train,2.3833446746554168E-4,61.684704572594,0.6070189094268095
77.1139,9.52979,train,2.2087760763685627E-4,59.9876750757507,0.5887334939502381
77.115827,10.055994,train,8.111229677356734E-4,98.57045910885432,0.8401766604765193
77.116041,9.524406,train,3.666480691113077E-4,67.79077487173112,0.7038138753382635
77.1177,8.874667,train,6.34904257302006E-5,28.482482147612792,0.2915253224112677
77.118359,9.535749,train,2.4360884416988311E-4,62.5046663192121,0.6122280124127661
77.119783,9.58432,train,2.449516310743179E-4,62.760907818272734,0.6135322014820117
77.12059,9.526946,train,2.3127466688108994E-4,61.05925510073747,0.5998234346909916
77.12182,11.9051,train,6.243940706845209E-4,85.0401098655397,0.801851253511423
77.123423,10.425183,train,4.2517925717206904E-4,70.52318933969585,0.7337307843588163
77.126083,10.421638,train,4.779394788511412E-4,74.15565018350283,0.7559510021847602
77.129688,8.709051,train,7.208437491750132E-5,31.253621772155395,0.3184206745614446
77.13031,9.45408,train,4.563819958606404E-4,72.47445088667469,0.7473358609851403
77.136748,9.645156,train,6.456616718255758E-4,86.75877437869788,0.8071192140848363
77.137215,10.035883,train,7.122699212311242E-4,92.28959336484944,0.8219449101431043
77.13772,10.22758,train,3.7549423737084047E-4,68.32833360734215,0.7087594354189396
77.13772,8.634829,train,5.362531940799022E-5,24.54907538011362,0.2579108825926349
77.138014,10.431967,train,4.0339155340459663E-4,70.05347636058448,0.7233282054032433
77.141628,11.984026,train,6.499041955490316E-4,87.00556628235337,0.808136747690341
77.142477,11.995163,train,5.400648767690447E-4,79.46870404682365,0.7777863748897413
77.142477,8.625575,train,1.0148122587227195E-4,40.28989718968699,0.3967554078407202
77.142713,11.985844,train,5.490438715990402E-4,79.82318469449686,0.7806232016348088
77.143765,9.461254,train,4.6507343279883283E-4,73.25075439677099,0.7508814224453572
77.144344,8.565845,train,1.2977824276834952E-4,49.5607174071997,0.4568452902353005
77.146425,9.630919,train,2.7045486295850115E-4,64.13933755199615,0.6367367794788963
77.146425,9.555047,train,3.0643751889921007E-4,66.02364125193641,0.6651071033616041
77.147917,9.532533,train,1.5882276202415242E-4,54.61433178363065,0.5072275743666742
77.148056,8.661385,train,6.723057107803557E-5,30.218147703153214,0.3034868283089058
77.149344,21.403772,train,5.33904738344044E-5,24.39046017202601,0.25707175302222307
77.149583,9.382933,train,6.096056485336724E-4,82.92991658173074,0.7980152818126758
77.152026,9.561649,train,1.8575776898697728E-4,58.58884840554545,0.5462590672249094
77.153076,9.944956,train,6.311996068221481E-4,85.69222991549694,0.8035680135483556
77.155513,9.64089,train,6.014954967274508E-4,82.1477309760873,0.7958478513944657
77.155969,9.619911,train,2.445927942210695E-4,62.69529453001125,0.6131845389488554
77.157433,10.277817,train,4.3535931274773983E-4,71.23940624479262,0.7383277628129696
77.158592,21.406384,train,5.382366261020855E-5,24.663958466691582,0.2586181099784192
77.159167,9.580783,train,1.776807644816614E-4,57.51200509659645,0.5352195560364462
77.159557,10.274299,train,3.5725080901664495E-4,67.25993972944033,0.6983728582702404
77.16033,9.602696,train,1.6006024942679146E-4,54.80005831124685,0.5091674071327259
77.161961,9.123792,train,2.9201460472329653E-5,3.478251001241258,0.1591377277077677
77.16246,10.263879,train,3.417392544935541E-4,66.98466013189733,0.6889406649238311
77.162476,21.314964,train,1.8578799038357965E-4,58.59532449970115,0.5462993886215929
77.164811,8.55782,train,1.0912029899400342E-4,42.374495173098595,0.4142494638303789
77.164836,9.593338,train,1.7369947164697257E-4,56.60615958556353,0.5295779421580279
77.165651,9.43543,train,6.721158947533996E-4,89.5149096182905,0.8132935053657526
77.166724,9.593895,train,2.0333022510316445E-4,59.482445496761514,0.5685542157356527
77.166869,9.603138,train,2.745500540457424E-4,64.45211864183553,0.6402056940062631
77.167282,11.975517,train,5.439497933674218E-4,79.61487479503789,0.7790227313380582
77.169092,9.574106,train,3.631887808266525E-4,67.50374138716552,0.7018339290871628
77.17095,9.425017,train,6.836588224214533E-4,90.25975134702612,0.815865407842
77.171233,9.09015,train,4.4615816635855285E-5,16.58604391737782,0.22429882911011262
77.174427,8.684812,train,7.953774767189176E-5,33.78454003251747,0.34014573488103966
77.174792,8.65222,train,3.499090007466514E-5,8.282099412424724,0.18485586529896486
77.177257,10.190383,train,5.190723582876887E-4,77.50286557414351,0.770858785275261
77.177582,8.671991,train,3.9131150682334E-4,69.21809191014077,0.717202548040094
77.179974,8.906038,train,5.07892949082718E-5,21.519414593646523,0.24764892298288355
77.180328,9.576376,train,2.22121118160793E-4,60.01002617498884,0.5900921288845766
77.18359,9.077349,train,3.546101596989009E-5,8.788892510043445,0.18687534821817436
77.184448,9.497826,train,4.7844256047999644E-4,74.24930740819846,0.7561450419720492
77.188568,10.285278,train,9.786711050185952E-5,39.02983442721531,0.38810945414368203
77.189845,10.191418,train,6.583292374210864E-4,88.0981036490309,0.8101259239001715
77.19132,9.840172,train,3.487971812175894E-4,67.09467495556085,0.6933045314293993
77.1925,10.202117,train,8.216356951099084E-4,99.2850721491781,0.8418982750261853
77.193417,10.18065,train,5.070891368694558E-4,76.2645236117723,0.7667071233009752
77.19435,8.6775,train,6.93464295598483E-4,90.79795318792563,0.8179951673839546
77.196167,10.139582,train,6.634053220853716E-4,88.70834291734981,0.8113046136999192
77.197129,10.213417,train,8.153747018938834E-4,98.92265832902069,0.8408774405942996
77.2,8.5444,train,1.1721891206063821E-4,44.835349301910334,0.4317209052934586
77.2,8.566933,train,3.692574709097412E-5,10.310763901021199,0.1931037475341331
77.202215,9.598211,train,6.105559856271398E-4,83.05923151624611,0.7982662498812689
77.202301,9.100741,train,2.8424535903418045E-4,65.14742734810052,0.6481600428508612
77.20432,10.284068,train,5.901835712153059E-4,81.43082345523662,0.7927458829825792
77.204836,10.308005,train,6.439544393828614E-5,28.936547817185424,0.29445721944636555
77.204876,8.554541,train,9.509282205079209E-5,38.438039662474274,0.3813025854803199
77.204919,10.095797,train,5.186690320139723E-4,77.45219093541597,0.7707214548214197
77.20627,10.008609,train,5.54279715180008E-4,80.08220364578659,0.7822442304735593
77.21149,9.93907,train,6.680147244787868E-4,89.0457440242732,0.81236233109397
77.21179,8.570674,train,9.157613330609181E-5,37.66439270702939,0.37245342834856116
77.213545,8.53086,train,6.548424560486836E-5,29.572818208055995,0.2979525023909593
77.214274,8.547326,train,1.061926683746879E-4,41.69681578963537,0.40766623152518366
77.214661,9.466672,train,6.937168510678521E-4,90.81154051154516,0.818049372086961
77.217525,8.857858,train,3.708916106933682E-5,10.448634637645927,0.1937927128099852
77.218373,9.967414,train,6.189184007454863E-4,84.20888665319461,0.8004480252139428
77.22,8.581217,train,3.478804518398562E-5,8.054919311618894,0.18398135750559744
77.223501,9.517973,train,3.7988890103790986E-4,68.6052802525697,0.7111554277922331
77.2244,9.955183,train,6.320433036188083E-4,85.76554378102446,0.803778773605357
77.225108,10.345075,train,3.453689217646773E-5,7.764165366954492,0.18289603328393836
77.228136,8.590017,train,5.19560309982446E-5,22.886304410071947,0.25190484570350774
77.228608,8.823586,train,5.481218066824542E-4,79.77452934493684,0.7803352256159051
77.229209,9.540151,train,2.6645625389610063E-4,63.93000693111008,0.6332845208026109
77.22957,8.617901,train,6.194619944970718E-4,84.29879503184448,0.8005882177892838
77.23114,9.190226,train,8.064607117907754E-4,98.37668262849274,0.8394010875771637
77.233286,8.626594,train,6.777844853894496E-4,89.96049487960936,0.8145654519789001
77.236633,9.467011,train,4.3011966023725226E-4,70.76000945975716,0.7359817095878456
77.239536,10.127579,train,7.795364901202248E-4,96.08848201608569,0.8347707088963936
77.239981,21.500991,train,4.8243420211632E-5,18.7380098710983,0.23819206699797016
77.244444,9.985318,train,8.023236644572426E-4,98.1752545575466,0.8387065535555068
77.244717,9.966917,train,6.84034081579134E-4,90.28075687490323,0.8159478313957319
77.244798,10.122298,train,7.781104646780403E-4,95.73062984356129,0.8345180068437786
77.2461,10.003033,train,8.009696163009722E-4,97.91112190926,0.8384779271310953
77.252684,10.125185,train,7.783597084931251E-4,95.75665291153881,0.8345622303846619
77.259507,10.147677,train,7.471341459326912E-4,93.64936158482496,0.828831465609779
77.260709,10.130896,train,7.5191120195619E-4,93.96768969682414,0.8297337770869557
77.26294,9.514587,train,4.797376454653626E-4,74.37169190727386,0.7566431426807194
77.26558,21.536623,train,4.8369218754792666E-5,18.85892968125298,0.23866493578436498
77.273884,9.45956,train,6.09096089073945E-4,82.86057945007576,0.7978804583742825
77.277,10.213,train,0.0012134651153250632,99.99999516750401,0.8871904539563532
77.29557,8.628591,train,3.3990448691923424E-5,7.130002998062829,0.18052464767789544
77.307533,9.439517,train,3.1284324462984306E-4,66.52092953440791,0.6696993730694789
77.309246,9.587548,train,8.191944468608948E-4,99.12416932683486,0.8415017993007595
77.337914,9.537781,train,4.8049372116418574E-4,74.42774115374513,0.7569329962070701
77.341318,9.644709,train,5.201790354411545E-4,77.65311979585377,0.7712347593552218
77.344952,9.574345,train,8.222288614878754E-4,99.32416778165734,0.8419943100335776
77.360171,8.550499,train,4.5963766694317613E-4,72.70855836962853,0.7486757297759814
77.363933,8.512117,train,7.186264138973906E-4,92.50446512057277,0.8232414802720901
77.369,8.460517,train,5.1337040986199E-5,22.203910290643922,0.2496529598657754
77.379713,8.549564,train,7.199814860896569E-4,92.5588699350785,0.8235154440890627
77.38395,8.488717,train,7.092810737206054E-4,91.9958209924153,0.8213286603911829
77.391558,9.699474,train,7.930693055575857E-4,97.50317909659395,0.8371309559205108
77.393317,8.367,train,5.265003307943069E-5,23.686311325815485,0.25441360676872427
77.40236,9.56851,train,2.878275322617822E-4,65.29030504139843,0.6510107167973245
77.402415,9.704404,train,4.8258510164224237E-4,74.59286220700031,0.7577311752172265
77.40381,8.566678,train,3.866593616296107E-4,68.99453012565615,0.7147705296134449
77.405806,8.604105,train,5.7425417540936566E-5,25.91518381172096,0.2712302899436091
77.417951,9.722339,train,3.023674689428986E-4,65.7029350857026,0.6621223472019551
77.439972,21.477278,train,5.232038975320121E-4,78.18489204505222,0.7722561362128747
77.453098,10.271343,train,8.009131251840268E-4,97.90021642695335,0.838468374713127
77.464943,8.462864,train,6.980061876028959E-4,91.2989746031092,0.8189650648545223
77.478955,10.239671,train,5.1281944862425E-4,76.62063563657131,0.7687110339633723
77.48138,10.223876,train,5.110549360416998E-4,76.47554229514247,0.7680976554953893
77.483665,10.219906,train,5.156012856130144E-4,76.90794671962239,0.7696714911289049
77.483711,10.228877,train,5.171899611858258E-4,77.18697519430069,0.7702164272606251
77.484967,8.469417,train,4.846270980025356E-4,74.7751541178533,0.7585054649782574
77.487034,10.211269,train,5.19963408250205E-4,77.62384396264964,0.7711616006220607
77.494252,10.228596,train,5.182283641376416E-4,77.3970253664433,0.7705712214491718
77.495499,10.240262,train,5.118859711654597E-4,76.51976136172495,0.7683869440613393
77.510988,10.241681,train,5.142616607412794E-4,76.77648769414628,0.7692099699293151
77.529445,10.369598,train,4.285139891711799E-5,15.776723129620166,0.2173565265330959
77.536909,10.242115,train,5.27741730191065E-4,78.81904645870993,0.7737713935444276
77.550087,10.231816,train,6.000636456338194E-4,82.01856159107163,0.7954603502125558
77.553692,10.208165,train,4.7115380165787094E-5,17.757917892182746,0.2339254391648469
77.56443,12.031177,train,5.222230548261785E-4,78.02132045716334,0.7719259448960175
77.574956,12.034452,train,4.373221761859486E-4,71.34639801331895,0.7391959348676346
77.67849,13.36925,train,7.163558675596304E-4,92.42771277192324,0.8227805174471791
77.710547,10.302521,train,6.53285051759117E-4,87.42362765797118,0.8089399631749677
77.71132,10.299513,train,5.792176267464618E-4,80.78958205465136,0.7896474601689394
77.72869,10.295666,train,3.7031013971449057E-4,68.06598237129751,0.7058814327462842
77.744579,10.50285,train,2.872022769515032E-5,3.312403775969675,0.15692672587836806
77.748518,10.3069,train,2.428477881740034E-4,62.307530770780765,0.6114849168957874
77.857318,20.902477,train,3.127154377443576E-5,4.83541366658183,0.16851786777011232
78.077388,22.47592,train,2.4019030228186644E-5,1.4731426438575326,0.1346995409601635
78.203505,11.789097,train,7.275368424803025E-4,92.90874543611433,0.8250275252715971
78.213043,11.777292,train,6.062521265410567E-4,82.53396814375566,0.7971246614055171
78.213188,11.846111,train,6.979677143664441E-4,91.29301121716715,0.8189568925071069
78.239216,11.766873,train,4.819185950445831E-4,74.53336960792925,0.7574773715080122
78.429036,22.466085,train,3.8769348932287534E-4,69.04509646276105,0.715314753047497
78.433328,22.467275,train,6.077357489833408E-4,82.69246936397695,0.797519645182034
78.433714,22.464815,train,3.8547938069784807E-4,68.92583646565032,0.7141470017730288
79.283781,21.668436,train,3.061040892545885E-5,4.183199937339202,0.16554490373722247
80.595703,22.29545,train,6.46048776180805E-5,29.044216958899383,0.29513224658175535
81.601338,17.670848,train,5.1350168653645264E-5,22.220813801959867,0.24970085902632894
81.715021,17.599358,train,2.456035684237303E-5,1.7386181887135916,0.13731845073232
